<?xml version="1.0" encoding="UTF-8" standalone="no"?>
<!-- Created with Inkscape (http://www.inkscape.org/) -->

<svg
   version="1.1"
   id="svg944"
   width="24.56624"
   height="9.1790686"
   viewBox="0 0 24.56624 9.1790685"
   xmlns="http://www.w3.org/2000/svg"
   xmlns:svg="http://www.w3.org/2000/svg"
   xmlns:rdf="http://www.w3.org/1999/02/22-rdf-syntax-ns#"
   xmlns:cc="http://creativecommons.org/ns#"
   xmlns:dc="http://purl.org/dc/elements/1.1/">
  <metadata
     id="metadata950">
    <rdf:RDF>
      <cc:Work
         rdf:about="">
        <dc:format>image/svg+xml</dc:format>
        <dc:type
           rdf:resource="http://purl.org/dc/dcmitype/StillImage" />
      </cc:Work>
    </rdf:RDF>
  </metadata>
  <defs
     id="defs948" />
  <g
     aria-label="TOP"
     style="font-style:normal;font-weight:normal;font-size:39.4899px;line-height:1.25;font-family:sans-serif;letter-spacing:0px;word-spacing:0px;fill:none;fill-opacity:1;stroke:#0ea5e9;stroke-width:0.2;stroke-dasharray:none;stroke-opacity:1"
     id="text1499"
     transform="translate(-2.7728982,-10.1918)">
    <path
       d="M 4.8846721,19.16803 V 18.743822 Q 5.1546226,18.69883 5.30888,18.628129 5.4695648,18.551 5.5466935,18.416025 q 0.077129,-0.134975 0.096411,-0.340652 0.019282,-0.212104 0.019282,-0.520619 v -6.40811 H 5.1417678 q -0.3856436,0 -0.5913202,0.08998 -0.2056765,0.08998 -0.359934,0.282805 -0.14783,0.192822 -0.2570957,0.520619 -0.1092657,0.32137 -0.179967,0.610602 H 2.8728981 V 10.394636 H 10.437939 V 12.65065 H 9.5573866 Q 9.4352662,12.213591 9.3645649,12.007914 9.2938635,11.802238 9.20388,11.660835 9.1203239,11.513005 9.023913,11.416594 8.9275021,11.320183 8.8182365,11.262337 8.7089708,11.20449 8.5418586,11.17878 8.3811738,11.146644 8.1176507,11.146644 H 7.6548784 v 6.40811 q 0,0.340652 0.019282,0.520619 0.019282,0.17354 0.070701,0.282805 0.051419,0.109266 0.1221204,0.179967 0.077129,0.06427 0.2056766,0.122121 0.1349753,0.05142 0.359934,0.08356 v 0.424208 z"
       style="font-style:normal;font-variant:normal;font-weight:bold;font-stretch:normal;font-size:13.1633px;font-family:Cambria;-inkscape-font-specification:'Cambria Bold';fill:none;fill-opacity:1;stroke:#0ea5e9;stroke-width:0.2;stroke-dasharray:none;stroke-opacity:1"
       id="path820" />
    <path
       d="m 14.956397,19.270868 q -1.889654,0 -2.840908,-1.105511 -0.944827,-1.105512 -0.944827,-3.310108 0,-1.446163 0.456345,-2.468119 0.462772,-1.028383 1.35618,-1.561856 0.893408,-0.533474 2.127467,-0.533474 1.921791,0 2.885899,1.105512 0.964109,1.099084 0.964109,3.271543 0,1.214777 -0.289232,2.088902 -0.282806,0.867699 -0.809852,1.426882 -0.527046,0.559183 -1.266196,0.822706 -0.732723,0.263523 -1.638985,0.263523 z M 13.214573,14.68171 q 0,1.941072 0.462773,2.892326 0.469199,0.944827 1.426881,0.944827 0.494909,0 0.841988,-0.263523 0.347079,-0.26995 0.559183,-0.745578 0.218532,-0.482054 0.308515,-1.137648 0.09641,-0.655594 0.09641,-1.439736 0,-1.279051 -0.205676,-2.140322 -0.19925,-0.867698 -0.610603,-1.304761 -0.404926,-0.44349 -1.041237,-0.44349 -0.931972,0 -1.388317,0.893408 -0.449918,0.88698 -0.449918,2.744497 z"
       style="font-style:normal;font-variant:normal;font-weight:bold;font-stretch:normal;font-size:13.1633px;font-family:Cambria;-inkscape-font-specification:'Cambria Bold';fill:none;fill-opacity:1;stroke:#0ea5e9;stroke-width:0.2;stroke-dasharray:none;stroke-opacity:1"
       id="path822" />
    <path
       d="m 22.939218,17.561182 q 0,0.424208 0.03214,0.604175 0.03214,0.173539 0.102838,0.282805 0.07713,0.102838 0.212104,0.173539 0.141403,0.0707 0.430636,0.122121 v 0.424208 h -3.457938 v -0.424208 q 0.237814,-0.06427 0.372789,-0.134975 0.141403,-0.07713 0.205677,-0.205677 0.0707,-0.134975 0.08998,-0.334224 0.01928,-0.205677 0.01928,-0.514192 v -5.540412 q 0,-0.302088 -0.01928,-0.507764 -0.01286,-0.205677 -0.08356,-0.334225 -0.06427,-0.128548 -0.205676,-0.205676 -0.134976,-0.08356 -0.379217,-0.14783 v -0.424208 h 3.734316 q 1.62613,0 2.435981,0.584892 0.809852,0.578466 0.809852,1.786816 0,0.854843 -0.379216,1.484727 -0.379216,0.629885 -1.099084,0.957682 -0.719868,0.321369 -1.79967,0.321369 -0.623457,0 -1.021956,-0.02571 z m 0,-2.783062 h 0.552756 q 0.642739,0 1.021955,-0.179967 0.379217,-0.186394 0.559184,-0.584892 0.186394,-0.398499 0.186394,-1.073375 0,-0.668449 -0.186394,-1.06052 -0.179967,-0.398498 -0.533474,-0.56561 -0.353507,-0.167112 -0.906262,-0.167112 -0.449918,0 -0.694159,0.01285 z"
       style="font-style:normal;font-variant:normal;font-weight:bold;font-stretch:normal;font-size:13.1633px;font-family:Cambria;-inkscape-font-specification:'Cambria Bold';fill:none;fill-opacity:1;stroke:#0ea5e9;stroke-width:0.2;stroke-dasharray:none;stroke-opacity:1"
       id="path824" />
  </g>
</svg>
