[
  {
    "schoolYear": "2024-2025",
    "terms": [
      {
        "start": "2024-08-19",
        "end": "2024-10-11"
      },
      {
        "start": "2024-10-28",
        "end": "2024-12-19"
      },
      {
        "start": "2025-01-21",
        "end": "2025-03-01"
      },
      {
        "start": "2025-03-17",
        "end": "2025-05-03"
      },
      {
        "start": "2025-05-19",
        "end": "2025-07-05"
      }
    ]
  },
  {
    "schoolYear": "2025-2026",
    "terms": [
      {
        "start": "2025-08-19",
        "end": "2025-10-11"
      },
      {
        "start": "2025-10-27",
        "end": "2025-12-19"
      },
      {
        "start": "2026-01-21",
        "end": "2026-02-28"
      },
      {
        "start": "2026-03-16",
        "end": "2026-05-02"
      },
      {
        "start": "2026-05-18",
        "end": "2026-07-04"
      }
    ]
  }
]