[
  {
    "src": "IMG/logo/arton544.png?1687425438",
    "titre": "Shérif",
    "ggb": "https://www.geogebra.org/classic/?id=1750139",
    "dgp": "https://www.dgpad.net/index.php?url=http://www-irem.univ-paris13.fr/site_spip/IMG/dgp/sherif.dgp"
  },
  {
    "src": "IMG/logo/arton545.png?1687425438",
    "titre": "Flash",
    "ggb": "https://www.geogebra.org/classic/?id=1750149",
    "dgp": "https://www.dgpad.net/index.php?url=http://www-irem.univ-paris13.fr/site_spip/IMG/dgp/flash.dgp"
  },
  {
    "src": "IMG/logo/arton547.png?1687425438",
    "titre": "Casse-tête",
    "ggb": "https://www.geogebra.org/classic/?id=1750155",
    "dgp": "https://www.dgpad.net/index.php?url=http://www-irem.univ-paris13.fr/site_spip/IMG/dgp/casse_tete.dgp"
  },
  {
    "src": "IMG/logo/arton548.png?1687425438",
    "titre": "Buissonneux",
    "ggb": "https://www.geogebra.org/classic/?id=1750165",
    "dgp": "https://www.dgpad.net/index.php?url=http://www-irem.univ-paris13.fr/site_spip/IMG/dgp/buissonneux.dgp"
  },
  {
    "src": "IMG/logo/arton549.png?1687425438",
    "titre": "Epineux",
    "ggb": "https://www.geogebra.org/classic/?id=1750179",
    "dgp": "https://www.dgpad.net/index.php?url=http://www-irem.univ-paris13.fr/site_spip/IMG/dgp/epineux.dgp"
  },
  {
    "src": "IMG/logo/arton550.png?1687425438",
    "titre": "Reflets",
    "ggb": "https://www.geogebra.org/classic/?id=1750185",
    "dgp": "https://www.dgpad.net/index.php?url=http://www-irem.univ-paris13.fr/site_spip/IMG/dgp/reflets.dgp"
  },
  {
    "src": "IMG/logo/arton551.png?1687425438",
    "titre": "Sommets",
    "ggb": "https://www.geogebra.org/classic/?id=1750189",
    "dgp": "https://www.dgpad.net/index.php?url=http://www-irem.univ-paris13.fr/site_spip/IMG/dgp/sommets.dgp"
  },
  {
    "src": "IMG/logo/arton546.png?1687425438",
    "titre": "Hepta Khi",
    "ggb": "https://www.geogebra.org/classic/?id=1750195",
    "dgp": "https://www.dgpad.net/index.php?url=http://www-irem.univ-paris13.fr/site_spip/IMG/dgp/hepta_khi.dgp"
  },
  {
    "src": "IMG/logo/arton552.png?1687425438",
    "titre": "Moulinette",
    "ggb": "https://www.geogebra.org/classic/?id=1750805",
    "dgp": "https://www.dgpad.net/index.php?url=http://www-irem.univ-paris13.fr/site_spip/IMG/dgp/moulinette.dgp"
  },
  {
    "src": "IMG/logo/arton553.png?1687425438",
    "titre": "Carrés emboîtés",
    "ggb": "https://www.geogebra.org/classic/?id=1750811",
    "dgp": "https://www.dgpad.net/index.php?url=http://www-irem.univ-paris13.fr/site_spip/IMG/dgp/carres_emboites.dgp"
  },
  {
    "src": "IMG/logo/arton554.png?1687425438",
    "titre": "Cube écorné",
    "ggb": "https://www.geogebra.org/classic/?id=1750815",
    "dgp": "https://www.dgpad.net/index.php?url=http://www-irem.univ-paris13.fr/site_spip/IMG/dgp/cube_ecorne.dgp"
  },
  {
    "src": "IMG/logo/arton555.png?1687425438",
    "titre": "Etoile Noire",
    "ggb": "https://www.geogebra.org/classic/?id=1750819",
    "dgp": "https://www.dgpad.net/index.php?url=http://www-irem.univ-paris13.fr/site_spip/IMG/dgp/etoile_noire.dgp"
  },
  {
    "src": "IMG/logo/arton570.png?1687425438",
    "titre": "Toulouse",
    "ggb": "https://www.geogebra.org/classic/?id=1750825",
    "dgp": "https://www.dgpad.net/index.php?url=http://www-irem.univ-paris13.fr/site_spip/IMG/dgp/toulouse.dgp"
  },
  {
    "src": "IMG/logo/arton571.png?1687425438",
    "titre": "Octoile",
    "ggb": "https://www.geogebra.org/classic/?id=1750821",
    "dgp": "https://www.dgpad.net/index.php?url=http://www-irem.univ-paris13.fr/site_spip/IMG/dgp/octoile.dgp"
  },
  {
    "src": "IMG/logo/arton585.png?1687425438",
    "titre": "Diamant",
    "ggb": "https://www.geogebra.org/classic/?id=1750829",
    "dgp": "https://www.dgpad.net/index.php?url=http://www-irem.univ-paris13.fr/site_spip/IMG/dgp/diamant.dgp"
  },
  {
    "src": "IMG/logo/arton611.png?1687425438",
    "titre": "Entrelacs hexagonaux",
    "ggb": "https://www.geogebra.org/classic/?id=1750833",
    "dgp": "https://www.dgpad.net/index.php?url=http://www-irem.univ-paris13.fr/site_spip/IMG/dgp/entrelacs_hexagonaux.dgp"
  },
  {
    "src": "IMG/logo/arton556.png?1687425438",
    "titre": "hextoile",
    "ggb": "https://www.geogebra.org/classic/?id=1750845",
    "dgp": "https://www.dgpad.net/index.php?url=http://www-irem.univ-paris13.fr/site_spip/IMG/dgp/hextoile.dgp"
  },
  {
    "src": "IMG/logo/arton557.png?1687425438",
    "titre": "Croix du sud",
    "ggb": "https://www.geogebra.org/classic/?id=1750851",
    "dgp": "https://www.dgpad.net/index.php?url=http://www-irem.univ-paris13.fr/site_spip/IMG/dgp/croix_du_sud.dgp"
  },
  {
    "src": "IMG/logo/arton558.png?1687425438",
    "titre": "Marquetterie",
    "ggb": "https://www.geogebra.org/classic/?id=1750855",
    "dgp": "https://www.dgpad.net/index.php?url=http://www-irem.univ-paris13.fr/site_spip/IMG/dgp/marqueterie.dgp"
  },
  {
    "src": "IMG/logo/arton559.png?1687425438",
    "titre": "Direction",
    "ggb": "https://www.geogebra.org/classic/?id=1750859",
    "dgp": "https://www.dgpad.net/index.php?url=http://www-irem.univ-paris13.fr/site_spip/IMG/dgp/direction.dgp"
  },
  {
    "src": "IMG/logo/arton560.png?1687425438",
    "titre": "Multiflash",
    "ggb": "https://www.geogebra.org/classic/?id=1750863",
    "dgp": "https://www.dgpad.net/index.php?url=http://www-irem.univ-paris13.fr/site_spip/IMG/dgp/multiflash.dgp"
  },
  {
    "src": "IMG/logo/arton568.png?1687425438",
    "titre": "Hermine",
    "ggb": "https://www.geogebra.org/classic/?id=1750867",
    "dgp": "https://www.dgpad.net/index.php?url=http://www-irem.univ-paris13.fr/site_spip/IMG/dgp/hermine.dgp"
  },
  {
    "src": "IMG/logo/arton569.png?1687425438",
    "titre": "Soissons",
    "ggb": "https://www.geogebra.org/classic/?id=1750871",
    "dgp": "https://www.dgpad.net/index.php?url=http://www-irem.univ-paris13.fr/site_spip/IMG/dgp/soissons.dgp"
  },
  {
    "src": "IMG/logo/arton586.png?1687425438",
    "titre": "Emeraude",
    "ggb": "https://www.geogebra.org/classic/?id=1750879",
    "dgp": "https://www.dgpad.net/index.php?url=http://www-irem.univ-paris13.fr/site_spip/IMG/dgp/emeraude.dgp"
  },
  {
    "src": "IMG/logo/arton608.png?1687425438",
    "titre": "Simple motif (partage en 2)",
    "ggb": "https://www.geogebra.org/classic/?id=1750881",
    "dgp": "https://www.dgpad.net/index.php?url=http://www-irem.univ-paris13.fr/site_spip/IMG/dgp/simple_motif.dgp"
  },
  {
    "src": "IMG/logo/arton609.png?1687425438",
    "titre": "Entrelacs (partage en 4)",
    "ggb": "https://www.geogebra.org/classic/?id=1750883",
    "dgp": "https://www.dgpad.net/index.php?url=http://www-irem.univ-paris13.fr/site_spip/IMG/dgp/entrelacs.dgp"
  },
  {
    "src": "IMG/logo/arton610.png?1687425438",
    "titre": "Nid d'abeilles (partage en 3)",
    "ggb": "https://www.geogebra.org/classic/?id=1750887",
    "dgp": "https://www.dgpad.net/index.php?url=http://www-irem.univ-paris13.fr/site_spip/IMG/dgp/nid_d_abeille.dgp"
  },
  {
    "src": "IMG/logo/arton575.png?1687425438",
    "titre": "Fleur de vitrail",
    "ggb": "https://www.geogebra.org/classic/?id=1750931",
    "dgp": "https://www.dgpad.net/index.php?url=http://www-irem.univ-paris13.fr/site_spip/IMG/dgp/fleur_de_vitrail.dgp"
  },
  {
    "src": "IMG/logo/arton574.png?1687425438",
    "titre": "Petite fleur",
    "ggb": "https://www.geogebra.org/classic/?id=1750927",
    "dgp": "https://www.dgpad.net/index.php?url=http://www-irem.univ-paris13.fr/site_spip/IMG/dgp/petite_fleur.dgp"
  },
  {
    "src": "IMG/logo/arton572.png?1687425438",
    "titre": "Lunules",
    "ggb": "https://www.geogebra.org/classic/?id=1750913",
    "dgp": "https://www.dgpad.net/index.php?url=http://www-irem.univ-paris13.fr/site_spip/IMG/dgp/lunules.dgp"
  },
  {
    "src": "IMG/logo/arton577.png?1687425438",
    "titre": "Croix de Malte",
    "ggb": "https://www.geogebra.org/classic/?id=1750935",
    "dgp": "https://www.dgpad.net/index.php?url=http://www-irem.univ-paris13.fr/site_spip/IMG/dgp/croix_de_malte.dgp"
  },
  {
    "src": "IMG/logo/arton573.png?1687425438",
    "titre": "Red fish",
    "ggb": "https://www.geogebra.org/classic/?id=1750921",
    "dgp": "https://www.dgpad.net/index.php?url=http://www-irem.univ-paris13.fr/site_spip/IMG/dgp/red_fish.dgp"
  },
  {
    "src": "IMG/logo/arton580.png?1687425438",
    "titre": "Trikanawa",
    "ggb": "https://www.geogebra.org/classic/?id=1750939",
    "dgp": "https://www.dgpad.net/index.php?url=http://www-irem.univ-paris13.fr/site_spip/IMG/dgp/trikanawa.dgp"
  },
  {
    "src": "IMG/logo/arton581.png?1687425438",
    "titre": "Coeur",
    "ggb": "https://www.geogebra.org/classic/?id=1750943",
    "dgp": "https://www.dgpad.net/index.php?url=http://www-irem.univ-paris13.fr/site_spip/IMG/dgp/coeur.dgp"
  },
  {
    "src": "IMG/logo/arton582.png?1687425438",
    "titre": "Trèfle",
    "ggb": "https://www.geogebra.org/classic/?id=1750949",
    "dgp": "https://www.dgpad.net/index.php?url=http://www-irem.univ-paris13.fr/site_spip/IMG/dgp/trefle.dgp"
  },
  {
    "src": "IMG/logo/arton561.png?1687425438",
    "titre": "Kaleidoscope",
    "ggb": "https://www.geogebra.org/classic/?id=1750957",
    "dgp": "https://www.dgpad.net/index.php?url=http://www-irem.univ-paris13.fr/site_spip/IMG/dgp/kaleidoscope.dgp"
  },
  {
    "src": "IMG/logo/arton562.png?1687425438",
    "titre": "Etoile double",
    "ggb": "https://www.geogebra.org/classic/?id=1750959",
    "dgp": "https://www.dgpad.net/index.php?url=http://www-irem.univ-paris13.fr/site_spip/IMG/dgp/etoile_double.dgp"
  },
  {
    "src": "IMG/logo/arton563.png?1687425438",
    "titre": "Etoile étoilée",
    "ggb": "https://www.geogebra.org/classic/?id=1750965",
    "dgp": "https://www.dgpad.net/index.php?url=http://www-irem.univ-paris13.fr/site_spip/IMG/dgp/etoile_etoilee.dgp"
  },
  {
    "src": "IMG/logo/arton564.png?1687425438",
    "titre": "Pentétoiles",
    "ggb": "https://www.geogebra.org/classic/?id=1750967",
    "dgp": "https://www.dgpad.net/index.php?url=http://www-irem.univ-paris13.fr/site_spip/IMG/dgp/pentetoile.dgp"
  },
  {
    "src": "IMG/logo/arton565.png?1687425438",
    "titre": "Motif de parquet (1)",
    "ggb": "https://www.geogebra.org/classic/?id=1750973",
    "dgp": "https://www.dgpad.net/index.php?url=http://www-irem.univ-paris13.fr/site_spip/IMG/dgp/motif_de_parquet_1.dgp"
  },
  {
    "src": "IMG/logo/arton566.png?1687425438",
    "titre": "Motif de parquet (2)",
    "ggb": "https://www.geogebra.org/classic/?id=1750975",
    "dgp": "https://www.dgpad.net/index.php?url=http://www-irem.univ-paris13.fr/site_spip/IMG/dgp/motif_de_parquet_2.dgp"
  },
  {
    "src": "IMG/logo/arton567.png?1687425438",
    "titre": "Ronde de rhomboïdes",
    "ggb": "https://www.geogebra.org/classic/?id=1750977",
    "dgp": "https://www.dgpad.net/index.php?url=http://www-irem.univ-paris13.fr/site_spip/IMG/dgp/ronde_de_rhomboide.dgp"
  },
  {
    "src": "IMG/logo/arton730.png?1687425439",
    "titre": "Trigone",
    "ggb": "https://www.geogebra.org/classic/?id=FQh63PGX"
  },
  {
    "src": "IMG/logo/arton1154.png?1687425432",
    "titre": "Apprendre à partager un cercle en six",
    "ggb": "https://www.geogebra.org/classic/?id=zetegvvw"
  },
  {
    "src": "IMG/logo/arton1157.png?1687425432",
    "titre": "Trois fois six",
    "ggb": "https://www.geogebra.org/classic/?id=znxn8j3r"
  },
  {
    "src": "IMG/logo/arton1153.png?1687425432",
    "titre": "Apprendre à partager un cercle en quatre",
    "ggb": "https://www.geogebra.org/classic/?id=cfgxrrjw"
  },
  {
    "src": "IMG/logo/arton1155.png?1687425432",
    "titre": "Apprendre à partager un cercle en huit",
    "ggb": "https://www.geogebra.org/classic/?id=h9thjwec"
  },
  {
    "src": "IMG/logo/arton1158.png?1687425432",
    "titre": "Napperon",
    "ggb": "https://www.geogebra.org/classic/?id=f3tbjdmt"
  },
  {
    "src": "IMG/logo/arton1156.png?1687425432",
    "titre": "Apprendre à partager un cercle en cinq",
    "ggb": "https://www.geogebra.org/classic/?id=pcchzkce"
  },
  {
    "src": "IMG/logo/arton1159.png?1687425432",
    "titre": "Double étoile",
    "ggb": "https://www.geogebra.org/classic/?id=rhrnyzcs"
  }
]