[
  {
    "name": "6e",
    "units": [
      {
        "title": "Nombres entiers 1",
        "objectives": [
          {
            "reference": "6C10"
          },
          {
            "reference": "6N10"
          }
        ]
      },
      {
        "title": "Vocabulaire de géométrie",
        "objectives": [
          {
            "reference": "6G10"
          },
          {
            "reference": "6G20"
          }
        ]
      },
      {
        "title": "Nombres entiers 2",
        "objectives": [
          {
            "reference": "6N11"
          },
          {
            "reference": "6C11"
          }
        ]
      },
      {
        "title": "Perpendiculaires",
        "objectives": [
          {
            "reference": "6G11"
          },
          {
            "reference": "6G31"
          }
        ]
      },
      {
        "title": "Proportionnalité 1",
        "objectives": [
          {
            "reference": "6P10"
          },
          {
            "reference": "6P11"
          }
        ]
      },
      {
        "title": "Fractions 1",
        "objectives": [
          {
            "reference": "6C14"
          },
          {
            "reference": "6N30"
          }
        ]
      },
      {
        "title": "Parallèles",
        "objectives": [
          {
            "reference": "6G15"
          },
          {
            "reference": "6G12"
          }
        ]
      },
      {
        "title": "Nombres décimaux 1",
        "objectives": [
          {
            "reference": "6N31"
          },
          {
            "reference": "6N20"
          }
        ]
      },
      {
        "title": "Polygones particuliers",
        "objectives": [
          {
            "reference": "6G21"
          },
          {
            "reference": "6G22"
          },
          {
            "reference": "6G25"
          }
        ]
      },
      {
        "title": "Nombres décimaux 2",
        "objectives": [
          {
            "reference": "6N21"
          },
          {
            "reference": "6C12"
          }
        ]
      },
      {
        "title": "Constructions géométriques",
        "objectives": [
          {
            "reference": "6G30"
          },
          {
            "reference": "6G32"
          }
        ]
      },
      {
        "title": "Proportionnalité 2",
        "objectives": [
          {
            "reference": "6P12"
          },
          {
            "reference": "6P13"
          }
        ]
      },
      {
        "title": "Périmètres et aires 1",
        "objectives": [
          {
            "reference": "6M10"
          },
          {
            "reference": "6M20"
          }
        ]
      },
      {
        "title": "Nombres décimaux 3",
        "objectives": [
          {
            "reference": "6N22"
          },
          {
            "reference": "6C20"
          }
        ]
      },
      {
        "title": "Angles",
        "objectives": [
          {
            "reference": "6G40"
          },
          {
            "reference": "6G41"
          },
          {
            "reference": "6G42"
          }
        ]
      },
      {
        "title": "Nombres entiers 3",
        "objectives": [
          {
            "reference": "6C21"
          },
          {
            "reference": "6C30"
          }
        ]
      },
      {
        "title": "Triangles",
        "objectives": [
          {
            "reference": "6G23"
          },
          {
            "reference": "6G24"
          }
        ]
      },
      {
        "title": "Proportionnalité 3",
        "objectives": [
          {
            "reference": "6P14"
          },
          {
            "reference": "6P15"
          }
        ]
      },
      {
        "title": "Se repérer, se déplacer",
        "objectives": [
          {
            "reference": "6G70"
          },
          {
            "reference": "6G71"
          },
          {
            "reference": "6G72"
          }
        ]
      },
      {
        "title": "Périmètres et aires 2",
        "objectives": [
          {
            "reference": "6M11"
          }
        ]
      },
      {
        "title": "Nombres décimaux 4",
        "objectives": [
          {
            "reference": "6C13"
          }
        ]
      },
      {
        "title": "Points et droites",
        "objectives": [
          {
            "reference": "6G13"
          },
          {
            "reference": "6G14"
          }
        ]
      },
      {
        "title": "Fractions 2",
        "objectives": [
          {
            "reference": "6N32"
          }
        ]
      },
      {
        "title": "Pourcentages",
        "objectives": [
          {
            "reference": "6P16"
          },
          {
            "reference": "6P17"
          }
        ]
      },
      {
        "title": "Périmètres et aires 3",
        "objectives": [
          {
            "reference": "6M13"
          },
          {
            "reference": "6M21"
          }
        ]
      },
      {
        "title": "Nombres décimaux 5",
        "objectives": [
          {
            "reference": "6C22"
          },
          {
            "reference": "6C31"
          }
        ]
      },
      {
        "title": "Statistiques",
        "objectives": [
          {
            "reference": "6S10"
          },
          {
            "reference": "6S11"
          }
        ]
      },
      {
        "title": "Durées, horaires",
        "objectives": [
          {
            "reference": "6M30"
          },
          {
            "reference": "6M31"
          }
        ]
      },
      {
        "title": "Symétrie axiale 1",
        "objectives": [
          {
            "reference": "6G50"
          },
          {
            "reference": "6G54"
          }
        ]
      },
      {
        "title": "Priorités opératoires",
        "objectives": [
          {
            "reference": "6C32"
          },
          {
            "reference": "6C33"
          }
        ]
      },
      {
        "title": "Périmètres et aires 4",
        "objectives": [
          {
            "reference": "6M12"
          },
          {
            "reference": "6M14"
          }
        ]
      },
      {
        "title": "Solides",
        "objectives": [
          {
            "reference": "6G60"
          }
        ]
      },
      {
        "title": "Agrandissement et réduction",
        "objectives": [
          {
            "reference": "6P18"
          }
        ]
      },
      {
        "title": "Symétrie axiale 2",
        "objectives": [
          {
            "reference": "6G51"
          },
          {
            "reference": "6G52"
          },
          {
            "reference": "6G53"
          }
        ]
      },
      {
        "title": "Volumes",
        "objectives": [
          {
            "reference": "6M15"
          },
          {
            "reference": "6M22"
          }
        ]
      },
      {
        "title": "Patrons",
        "objectives": [
          {
            "reference": "6G61"
          },
          {
            "reference": "6G62"
          }
        ]
      }
    ]
  },
  {
    "name": "5e",
    "units": [
      {
        "title": "Enchaînements d’opérations",
        "objectives": [
          {
            "reference": "6C10"
          },
          {
            "reference": "5N10"
          },
          {
            "reference": "5N11"
          }
        ]
      },
      {
        "title": "Constructions de triangles 1",
        "objectives": [
          {
            "reference": "6G23"
          },
          {
            "reference": "5G20"
          }
        ]
      },
      {
        "title": "Nombres relatifs 1",
        "objectives": [
          {
            "reference": "5X1"
          },
          {
            "reference": "5N31"
          },
          {
            "reference": "5X2"
          },
          {
            "reference": "5N30"
          },
          {
            "reference": "5N32"
          }
        ]
      },
      {
        "title": "Symétrie et médiatrice",
        "objectives": [
          {
            "reference": "6G50"
          },
          {
            "reference": "6G51"
          },
          {
            "reference": "6G53"
          }
        ]
      },
      {
        "title": "Calcul littéral 1",
        "objectives": [
          {
            "reference": "5N50"
          },
          {
            "reference": "5N51"
          }
        ]
      },
      {
        "title": "Proportionnalité",
        "objectives": [
          {
            "reference": "6P10"
          },
          {
            "reference": "6P15"
          }
        ]
      },
      {
        "title": "Constructions de triangles 2",
        "objectives": [
          {
            "reference": "5G21"
          },
          {
            "reference": "5G22"
          }
        ]
      },
      {
        "title": "Nombres relatifs 2",
        "objectives": [
          {
            "reference": "5N33"
          },
          {
            "reference": "5N34"
          },
          {
            "reference": "5N35"
          }
        ]
      },
      {
        "title": "Représentation de données",
        "objectives": [
          {
            "reference": "5S10"
          },
          {
            "reference": "5S11"
          }
        ]
      },
      {
        "title": "Calcul littéral 2",
        "objectives": [
          {
            "reference": "5N52"
          },
          {
            "reference": "5N53"
          }
        ]
      },
      {
        "title": "Symétrie centrale",
        "objectives": [
          {
            "reference": "5G10"
          },
          {
            "reference": "5G11"
          },
          {
            "reference": "5G12"
          }
        ]
      },
      {
        "title": "Fractions 1",
        "objectives": [
          {
            "reference": "6P16"
          },
          {
            "reference": "5N20"
          }
        ]
      },
      {
        "title": "Échelles",
        "objectives": [
          {
            "reference": "6M20"
          },
          {
            "reference": "5P11"
          }
        ]
      },
      {
        "title": "Arithmétique 1",
        "objectives": [
          {
            "reference": "5N40"
          },
          {
            "reference": "5N41"
          }
        ]
      },
      {
        "title": "Somme des angles d'un triangle",
        "objectives": [
          {
            "reference": "5G32"
          }
        ]
      },
      {
        "title": "Calcul littéral 3",
        "objectives": [
          {
            "reference": "5N54"
          }
        ]
      },
      {
        "title": "Périmètres et aires",
        "objectives": [
          {
            "reference": "5M10"
          },
          {
            "reference": "6M14"
          },
          {
            "reference": "6M21"
          }
        ]
      },
      {
        "title": "Fractions 2",
        "objectives": [
          {
            "reference": "5N21"
          },
          {
            "reference": "5N22"
          }
        ]
      },
      {
        "title": "Angles",
        "objectives": [
          {
            "reference": "5G30"
          },
          {
            "reference": "5G31"
          }
        ]
      },
      {
        "title": "Arithmétique 2",
        "objectives": [
          {
            "reference": "5N42"
          },
          {
            "reference": "5N43"
          }
        ]
      },
      {
        "title": "Probabilités",
        "objectives": [
          {
            "reference": "5S20"
          },
          {
            "reference": "5S21"
          }
        ]
      },
      {
        "title": "Calcul littéral 4",
        "objectives": [
          {
            "reference": "5N55"
          }
        ]
      },
      {
        "title": "Ratios",
        "objectives": [
          {
            "reference": "5P10"
          }
        ]
      },
      {
        "title": "Fractions 3",
        "objectives": [
          {
            "reference": "5N23"
          },
          {
            "reference": "5N24"
          }
        ]
      },
      {
        "title": "Moyennes",
        "objectives": [
          {
            "reference": "5S12"
          },
          {
            "reference": "5S13"
          }
        ]
      },
      {
        "title": "Durées, horaires",
        "objectives": [
          {
            "reference": "6M30"
          },
          {
            "reference": "6M31"
          }
        ]
      },
      {
        "title": "Parallélogrammes",
        "objectives": [
          {
            "reference": "5G42"
          },
          {
            "reference": "5G40"
          }
        ]
      },
      {
        "title": "Dépendance entre deux grandeurs",
        "objectives": [
          {
            "reference": "5S30"
          },
          {
            "reference": "5S31"
          }
        ]
      },
      {
        "title": "Volumes",
        "objectives": [
          {
            "reference": "6M22"
          },
          {
            "reference": "5M20"
          },
          {
            "reference": "5M21"
          }
        ]
      }
    ]
  },
  {
    "name": "4e",
    "units": [
      {
        "title": "Statistiques",
        "objectives": [
          {
            "reference": "4S14"
          },
          {
            "reference": "4S10"
          },
          {
            "reference": "4S11"
          }
        ]
      },
      {
        "title": "Distributivité 1",
        "objectives": [
          {
            "reference": "4N50"
          },
          {
            "reference": "4N51"
          }
        ]
      },
      {
        "title": "Multiplication et division de nombres relatifs",
        "objectives": [
          {
            "reference": "4N10"
          }
        ]
      },
      {
        "title": "Racine carrée",
        "objectives": [
          {
            "reference": "4G20"
          },
          {
            "reference": "4G21"
          }
        ]
      },
      {
        "title": "Équations 1",
        "objectives": [
          {
            "reference": "4N55"
          }
        ]
      },
      {
        "title": "Repérage dans un pavé droit",
        "objectives": [
          {
            "reference": "4G50"
          }
        ]
      },
      {
        "title": "Puissances 1",
        "objectives": [
          {
            "reference": "4N30"
          },
          {
            "reference": "4N31"
          }
        ]
      },
      {
        "title": "Proportionnalité et représentation graphique",
        "objectives": [
          {
            "reference": "4P10"
          },
          {
            "reference": "4P11"
          }
        ]
      },
      {
        "title": "Distributivité 2",
        "objectives": [
          {
            "reference": "4N52"
          },
          {
            "reference": "4N53"
          }
        ]
      },
      {
        "title": "Théorème de Pythagore",
        "objectives": [
          {
            "reference": "4G22"
          }
        ]
      },
      {
        "title": "Nombres premiers 1",
        "objectives": [
          {
            "reference": "4N40"
          },
          {
            "reference": "4N41"
          }
        ]
      },
      {
        "title": "Translation 1",
        "objectives": [
          {
            "reference": "4G10"
          },
          {
            "reference": "4G11"
          }
        ]
      },
      {
        "title": "Équations 2",
        "objectives": [
          {
            "reference": "4N57"
          }
        ]
      },
      {
        "title": "Probabilités",
        "objectives": [
          {
            "reference": "4S12"
          },
          {
            "reference": "4S13"
          }
        ]
      },
      {
        "title": "Fractions 1",
        "objectives": [
          {
            "reference": "4N23"
          },
          {
            "reference": "4N20"
          }
        ]
      },
      {
        "title": "Triangles égaux",
        "objectives": [
          {
            "reference": "4G30"
          }
        ]
      },
      {
        "title": "Puissances 2",
        "objectives": [
          {
            "reference": "4N32"
          },
          {
            "reference": "4N33"
          }
        ]
      },
      {
        "title": "Agrandissement et réduction 1",
        "objectives": [
          {
            "reference": "6P18"
          }
        ]
      },
      {
        "title": "Nombres premiers 2",
        "objectives": [
          {
            "reference": "4N42"
          }
        ]
      },
      {
        "title": "Translation 2",
        "objectives": [
          {
            "reference": "4G12"
          }
        ]
      },
      {
        "title": "Équations 3",
        "objectives": [
          {
            "reference": "4N56"
          }
        ]
      },
      {
        "title": "Dépendance entre deux grandeurs 1",
        "objectives": [
          {
            "reference": "5S31"
          }
        ]
      },
      {
        "title": "Théorème de Thalès",
        "objectives": [
          {
            "reference": "4G31"
          }
        ]
      },
      {
        "title": "Fractions 2",
        "objectives": [
          {
            "reference": "4N21"
          }
        ]
      },
      {
        "title": "Cosinus d'un angle aigu",
        "objectives": [
          {
            "reference": "4G40"
          }
        ]
      },
      {
        "title": "Puissances 3",
        "objectives": [
          {
            "reference": "4N34"
          },
          {
            "reference": "4N35"
          }
        ]
      },
      {
        "title": "Agrandissement et réduction 2",
        "objectives": [
          {
            "reference": "4P12"
          }
        ]
      },
      {
        "title": "Équations 4",
        "objectives": [
          {
            "reference": "4N54"
          }
        ]
      },
      {
        "title": "Réciproques et contraposées",
        "objectives": [
          {
            "reference": "4G23"
          },
          {
            "reference": "4G32"
          }
        ]
      },
      {
        "title": "Fractions 3",
        "objectives": [
          {
            "reference": "4N22"
          }
        ]
      },
      {
        "title": "Grandeurs composées",
        "objectives": [
          {
            "reference": "4P14"
          },
          {
            "reference": "4N36"
          }
        ]
      },
      {
        "title": "Pyramides et cônes",
        "objectives": [
          {
            "reference": "4G51"
          },
          {
            "reference": "4G52"
          },
          {
            "reference": "4G53"
          }
        ]
      },
      {
        "title": "Dépendance entre deux grandeurs 2",
        "objectives": [
          {
            "reference": "4S20"
          },
          {
            "reference": "4S21"
          }
        ]
      }
    ]
  },
  {
    "name": "3e",
    "units": [
      {
        "title": "Probabilités",
        "objectives": [
          {
            "reference": "4S12"
          },
          {
            "reference": "4S13"
          },
          {
            "reference": "3S20"
          }
        ],
        "assessmentExamSlug": "uuid=dnb_2021_06_etrangers_2&uuid=dnb_2020_09_polynesie_4&uuid=dnb_2019_07_polynesie_3&uuid=dnb_2019_06_etrangers_4&uuid=dnb_2018_06_etrangers_3"
      },
      {
        "title": "Calcul littéral 1",
        "objectives": [
          {
            "reference": "4N52"
          }
        ]
      },
      {
        "title": "Théorème de Pythagore",
        "objectives": [
          {
            "reference": "4G22"
          }
        ],
        "assessmentExamSlug": "uuid=dnb_2021_12_caledonie_3&uuid=dnb_2021_06_metropole_5&uuid=dnb_2020_12_caledonie_5&uuid=dnb_2019_09_polynesie_5&uuid=dnb_2018_12_caledonie_5"
      },
      {
        "title": "Notion de fonction 1",
        "objectives": [
          {
            "reference": "3S30"
          }
        ]
      },
      {
        "title": "Équations 1",
        "objectives": [
          {
            "reference": "4N57"
          }
        ]
      },
      {
        "title": "Proportionnalité en géométrie 1 (Triangles égaux)",
        "objectives": [
          {
            "reference": "4G30"
          }
        ]
      },
      {
        "title": "Statistiques 1",
        "objectives": [
          {
            "reference": "4S14"
          },
          {
            "reference": "4S10"
          },
          {
            "reference": "3S11"
          }
        ],
        "assessmentExamSlug": "uuid=dnb_2023_06_metropole_1&uuid=dnb_2022_09_polynesie_5&uuid=dnb_2021_12_caledonie_2&uuid=dnb_2021_09_metropole_2&uuid=dnb_2021_06_metropole_1"
      },
      {
        "title": "Nombres premiers 1",
        "objectives": [
          {
            "reference": "3N10"
          },
          {
            "reference": "4N41"
          }
        ]
      },
      {
        "title": "Proportionnalité en géométrie 2 (Triangles semblables)",
        "objectives": [
          {
            "reference": "3G10"
          },
          {
            "reference": "3G16"
          }
        ]
      },
      {
        "title": "Calcul littéral 2",
        "objectives": [
          {
            "reference": "4N53"
          }
        ]
      },
      {
        "title": "Notion de fonction 2",
        "objectives": [
          {
            "reference": "3S31"
          },
          {
            "reference": "3S32"
          },
          {
            "reference": "3S33"
          }
        ]
      },
      {
        "title": "Calcul littéral 3",
        "objectives": [
          {
            "reference": "3N20"
          },
          {
            "reference": "3N21"
          }
        ],
        "assessmentExamSlug": "uuid=dnb_2024_07_metropole_2&uuid=dnb_2023_06_metropole_5&uuid=dnb_2022_06_polynesie_4&uuid=dnb_2022_06_metropole_mathalea_4&uuid=dnb_2018_05_pondichery_4"
      },
      {
        "title": "Proportionnalité en géométrie 3 (Théorème de Thalès)",
        "objectives": [
          {
            "reference": "4G31"
          }
        ]
      },
      {
        "title": "Statistiques 2",
        "objectives": [
          {
            "reference": "5S10"
          },
          {
            "reference": "3S12"
          }
        ]
      },
      {
        "title": "Nombres premiers 2",
        "objectives": [
          {
            "reference": "4N42"
          }
        ]
      },
      {
        "title": "Proportionnalité en géométrie 4 (Trigonométrie 1)",
        "objectives": [
          {
            "reference": "3G20"
          }
        ]
      },
      {
        "title": "Calcul littéral 4",
        "objectives": [
          {
            "reference": "3N22"
          }
        ]
      },
      {
        "title": "Fonctions linéaires 1",
        "objectives": [
          {
            "reference": "3S40"
          },
          {
            "reference": "3S41"
          },
          {
            "reference": "3S42"
          }
        ]
      },
      {
        "title": "Puissances",
        "objectives": [
          {
            "reference": "4N32"
          },
          {
            "reference": "4N35"
          }
        ]
      },
      {
        "title": "Proportionnalité en géométrie 5 (Homothétie)",
        "objectives": [
          {
            "reference": "3G11"
          },
          {
            "reference": "3G15"
          }
        ]
      },
      {
        "title": "Statistiques 3",
        "objectives": [
          {
            "reference": "3P10"
          }
        ]
      },
      {
        "title": "Rotations",
        "objectives": [
          {
            "reference": "3G12"
          },
          {
            "reference": "3G13"
          },
          {
            "reference": "3G14"
          }
        ]
      },
      {
        "title": "Équations 2",
        "objectives": [
          {
            "reference": "3N23"
          },
          {
            "reference": "3N24"
          }
        ],
        "assessmentExamSlug": "uuid=dnb_2024_05_ameriquenord_2&uuid=dnb_2024_07_antilles_4&uuid=dnb_2023_06_polynesie_4&uuid=dnb_2023_06_etrangers_3&uuid=dnb_2023_06_asie_3&uuid=dnb_2020_09_metropole_2"
      },
      {
        "title": "Fonctions linéaires 2",
        "objectives": [
          {
            "reference": "3S43"
          },
          {
            "reference": "3S44"
          }
        ]
      },
      {
        "title": "Fractions",
        "objectives": [
          {
            "reference": "4N22"
          },
          {
            "reference": "4N23"
          }
        ]
      },
      {
        "title": "Proportionnalité en géométrie 5 (Trigonométrie 2)",
        "objectives": [
          {
            "reference": "3G21"
          }
        ]
      },
      {
        "title": "Fonctions affines 1",
        "objectives": [
          {
            "reference": "3S50"
          },
          {
            "reference": "3S51"
          },
          {
            "reference": "3S53"
          }
        ]
      },
      {
        "title": "Sphère et boule",
        "objectives": [
          {
            "reference": "3G30"
          },
          {
            "reference": "3G31"
          }
        ]
      },
      {
        "title": "Grandeurs composées",
        "objectives": [
          {
            "reference": "4P14"
          },
          {
            "reference": "4N36"
          }
        ]
      },
      {
        "title": "Proportionnalité en géométrie 6 (Réciproque du théorème de Thalès)",
        "objectives": [
          {
            "reference": "4G32"
          }
        ]
      },
      {
        "title": "Fonctions affines 2",
        "objectives": [
          {
            "reference": "3S52"
          },
          {
            "reference": "3S54"
          }
        ]
      },
      {
        "title": "Solides et sections planes",
        "objectives": [
          {
            "reference": "3G32"
          },
          {
            "reference": "3G33"
          }
        ]
      }
    ]
  }
]