<?xml version="1.0" encoding="UTF-8" standalone="no"?>
<!-- Created with Inkscape (http://www.inkscape.org/) -->

<svg
   version="1.1"
   id="svg357"
   width="1146.6667"
   height="1238.6667"
   viewBox="0 0 1146.6667 1238.6667"
   sodipodi:docname="Carapuce.svg"
   inkscape:version="1.2.1 (9c6d41e, 2022-07-14)"
   xmlns:inkscape="http://www.inkscape.org/namespaces/inkscape"
   xmlns:sodipodi="http://sodipodi.sourceforge.net/DTD/sodipodi-0.dtd"
   xmlns="http://www.w3.org/2000/svg"
   xmlns:svg="http://www.w3.org/2000/svg">
  <defs
     id="defs361" />
  <sodipodi:namedview
     id="namedview359"
     pagecolor="#ffffff"
     bordercolor="#000000"
     borderopacity="0.25"
     inkscape:showpageshadow="2"
     inkscape:pageopacity="0.0"
     inkscape:pagecheckerboard="0"
     inkscape:deskcolor="#d1d1d1"
     showgrid="false"
     inkscape:zoom="0.19052744"
     inkscape:cx="-55.110173"
     inkscape:cy="619.33337"
     inkscape:window-width="1470"
     inkscape:window-height="828"
     inkscape:window-x="0"
     inkscape:window-y="37"
     inkscape:window-maximized="1"
     inkscape:current-layer="g363" />
  <g
     inkscape:groupmode="layer"
     inkscape:label="Image"
     id="g363">
    <path
       style="fill:#000000;stroke-width:1.33333"
       d="m 669.33335,1154.3425 c -4.88969,-2.1667 -17.64312,-10.4127 -20.27605,-13.1098 -1.25184,-1.2823 -5.60444,-3.5769 -9.67245,-5.0989 -8.24027,-3.0831 -14.62449,-2.951 -28.82353,0.5964 -4.70872,1.1763 -10.6613,2.6664 -13.22797,3.3113 -2.56667,0.6449 -6.17229,1.5417 -8.01251,1.993 -2.48225,0.6087 -4.11164,0.01 -6.31285,-2.3378 -2.61693,-2.7856 -3.20821,-5.8252 -5.01123,-25.7608 -2.18821,-24.1946 -6.07226,-41.1587 -13.50421,-58.9811 -1.00423,-2.4082 -1.82587,-5.0059 -1.82587,-5.7726 0,-0.7667 -1.5432,-5.3964 -3.42932,-10.2881 -4.76181,-12.3499 -5.78373,-14.7544 -9.03649,-21.2621 -2.6586,-5.319 -3.11857,-5.6348 -6.85861,-4.7097 -4.52962,1.1203 -7.31219,1.0416 -23.39912,-0.6619 -6.26463,-0.6634 -13.46463,-2.1091 -16.00001,-3.2126 -2.53538,-1.1035 -6.40978,-2.8185 -8.60978,-3.8112 -2.2,-0.9927 -7,-1.888 -10.66667,-1.9896 -15.52859,-0.4301 -32.59381,-1.9519 -35.87388,-3.199 -3.07009,-1.16727 -9.18317,-2.35087 -25.45945,-4.92937 -2.2,-0.34854 -6.26848,-1.7928 -9.04106,-3.20948 -2.77258,-1.41668 -6.10258,-2.57579 -7.4,-2.57579 -1.29742,0 -2.92894,-0.49857 -3.62561,-1.10795 -0.69667,-0.60936 -4.95827,-2.18668 -9.47023,-3.50513 -7.95429,-2.32437 -8.35889,-2.32109 -13.31576,0.10787 -10.94395,5.36289 -25.51268,31.76695 -29.26965,53.04775 -0.50582,2.8651 -1.61788,6.5551 -2.47127,8.2 -1.61145,3.1061 -9.03368,9.9241 -10.80357,9.9241 -0.55672,0 -4.2791,1.5454 -8.27195,3.4344 -3.99284,1.8889 -10.05075,3.8819 -13.46199,4.429 -3.41124,0.547 -8.30225,1.9663 -10.86892,3.1541 -2.56666,1.1877 -7.15948,2.8023 -10.20626,3.5881 -3.04678,0.7858 -8.91389,2.921 -13.03802,4.7449 -4.12413,1.8239 -8.70015,3.3161 -10.16892,3.3161 -1.46877,0 -3.01453,0.8966 -3.43503,1.9924 -0.42049,1.0958 -1.23274,1.7029 -1.805,1.3493 -1.08994,-0.6737 -7.22561,1.0628 -14.01344,3.966 -2.2,0.9409 -6.4,2.4769 -9.33333,3.4134 -2.93333,0.9364 -7.30159,2.8073 -9.70723,4.1574 -2.40564,1.3503 -5.21277,2.4549 -6.23809,2.4549 -1.02531,0 -2.82251,0.9583 -3.99375,2.1296 -1.22889,1.2289 -5.36436,2.4228 -9.77804,2.8231 l -7.64848,0.6935 -1.5646,-5.8231 c -0.97193,-3.6173 -1.09209,-6.3029 -0.3172,-7.0897 0.68607,-0.6967 1.27372,-2.7967 1.30591,-4.6667 0.0321,-1.87 0.8104,-5.5 1.72935,-8.0667 l 1.67081,-4.6666 -6.06267,0.4029 c -3.33448,0.2216 -7.26268,0.9243 -8.72934,1.5614 -1.46667,0.6372 -5.96667,1.5503 -10,2.0291 -13.36723,1.587 -16.6229,2.1023 -21.52389,3.4065 -5.2241,1.3902 -9.15509,0.5819 -9.1227,-1.8759 0.0281,-2.1386 2.92704,-10.0113 5.6689,-15.3956 3.46388,-6.8021 3.05158,-9.4618 -1.46676,-9.4618 -2.07778,0 -4.16668,-0.3889 -4.64198,-0.8642 -0.47532,-0.4753 -4.02532,-1.109 -7.8889,-1.4083 -4.71408,-0.3651 -7.90181,-1.4232 -9.69134,-3.217 l -2.66667,-2.6729 2.88216,-2.3704 c 1.58519,-1.3038 4.07644,-4.5987 5.53611,-7.3221 1.45966,-2.7234 3.08346,-4.8461 3.60845,-4.7171 1.31151,0.3224 13.97328,-11.8944 13.97328,-13.4822 0,-0.7035 1.05,-1.3007 2.33333,-1.3271 1.28334,-0.026 4.08643,-1.4811 6.22911,-3.2327 4.42633,-3.6186 4.45124,-3.8619 2.80383,-27.38597 -1.53479,-21.91571 -0.8436,-45.44262 1.52765,-52 0.39777,-1.1 1.00256,-4.10001 1.34395,-6.66667 0.3414,-2.56667 2.67753,-10.83308 5.19143,-18.3698 2.51389,-7.53672 4.5707,-14.85848 4.5707,-16.27059 0,-3.41489 9.44303,-25.46931 12,-28.02628 1.56426,-1.56425 6.53039,-9.14544 9.19763,-14.04091 7.44189,-13.65888 22.47219,-36.1769 28.39708,-42.54384 1.32291,-1.42161 2.40529,-3.37161 2.40529,-4.33333 0,-0.96172 0.53582,-1.74859 1.19068,-1.74859 1.96671,0 2.88923,-4.026 1.51215,-6.59911 -0.7082,-1.32326 -1.64492,-7.1298 -2.08163,-12.90341 -0.43669,-5.77361 -1.12752,-11.39748 -1.53516,-12.49748 -0.40764,-1.1 -1.24741,-5.9 -1.86618,-10.66667 -0.61876,-4.76666 -1.79034,-13.46666 -2.6035,-19.33333 -1.43516,-10.3542 -0.79785,-50.23831 0.87232,-54.59068 1.30184,-3.39255 -4.98393,-5.35252 -11.74322,-3.66167 -3.16,0.79047 -17.28883,2.17587 -31.3974,3.07864 -20.50121,1.31184 -29.46997,1.30334 -44.66667,-0.0424 -10.4581,-0.92609 -20.81472,-2.19056 -23.01472,-2.80993 -2.2,-0.61938 -7.9,-1.50782 -12.66667,-1.9743 -4.76667,-0.46649 -10.766667,-1.07465 -13.333334,-1.35148 -2.566667,-0.27682 -11.296442,-0.80861 -19.399498,-1.18174 -8.103057,-0.37314 -15.603058,-0.93498 -16.666667,-1.24855 -1.063611,-0.31357 -4.633836,-1.36572 -7.933836,-2.33809 -3.3,-0.97239 -6.440812,-2.39314 -6.979583,-3.15722 -2.019375,-2.86389 -1.102904,-20.83817 1.26706,-24.8502 1.258112,-2.12981 2.776063,-3.87238 3.373225,-3.87238 0.597162,0 4.165654,-3 7.929982,-6.66667 3.764328,-3.66667 7.276397,-6.66667 7.804599,-6.66667 0.528203,0 1.281775,-1.05 1.674607,-2.33333 0.392832,-1.28333 1.305977,-4.2312 2.029209,-6.55081 1.046605,-3.35678 0.864549,-4.73332 -0.892064,-6.74506 -2.344467,-2.68494 -4.451998,-6.38522 -11.690919,-20.52621 -7.663019,-14.96944 -5.55585,-22.18973 7.296907,-25.00312 7.019872,-1.53661 21.296222,-2.78336 32.268897,-2.81804 5.271033,-0.0167 8.162665,-0.71761 10.000005,-2.42408 1.42161,-1.32036 3.62403,-2.79741 4.89426,-3.28235 3.09202,-1.18043 27.32304,-17.80709 32.35715,-22.20259 2.2,-1.92092 6.1,-4.6373 8.66667,-6.03641 2.56666,-1.39911 4.96666,-2.97824 5.33333,-3.50917 1.14911,-1.66391 15.64953,-9.2355 17.68702,-9.2355 1.06748,0 4.16441,-1.50894 6.88208,-3.3532 2.71768,-1.84426 11.6514,-6.08757 19.85273,-9.42957 8.20133,-3.342 18.81151,-8.07788 23.57817,-10.52417 4.76667,-2.44631 11.36667,-5.15584 14.66667,-6.0212 14.53579,-3.81175 20.7918,-5.80442 22.51937,-7.1729 1.01899,-0.80718 4.31899,-2.15569 7.33334,-2.99666 3.01434,-0.84099 8.78062,-2.82708 12.81396,-4.41354 12.11211,-4.76413 17.89317,-6.71556 19.95543,-6.73602 3.04553,-0.0303 13.3779,-4.2544 13.3779,-5.46928 0,-0.59818 -4.05,-3.7534 -9,-7.01162 -16.71506,-11.00229 -66.06568,-63.32557 -69.07443,-73.23519 -0.49596,-1.63349 -2.24677,-4.76998 -3.89069,-6.96998 -6.26035,-8.37802 -13.98113,-27.97503 -14.01768,-35.57987 -0.009,-1.96893 -0.63879,-5.21476 -1.39849,-7.21296 -2.43575,-6.40648 1.9904,-21.66186 10.40834,-35.87384 1.30308,-2.2 5.20508,-8.1936 8.6711,-13.3191 l 6.30185,-9.3191 v -13.34807 c 0,-14.026 2.25193,-27.849 5.77932,-35.47496 1.15467,-2.49633 3.36871,-7.83877 4.92008,-11.87211 1.55139,-4.03333 4.27868,-9.9589 6.06065,-13.16793 1.78198,-3.20904 3.23995,-6.41641 3.23995,-7.12751 0,-0.71109 1.23795,-3.03142 2.75097,-5.15631 1.51304,-2.12486 2.36139,-4.49376 1.88522,-5.26422 -0.47616,-0.77047 -0.25819,-2.13294 0.48441,-3.02771 0.7426,-0.89477 1.32735,-5.58507 1.29943,-10.42287 -0.0616,-10.68506 0.81857,-13.74628 5.758,-20.02532 2.10208,-2.6722 3.82197,-5.40849 3.82197,-6.08065 0,-2.01347 24.63775,-25.83928 30.87774,-29.86017 3.18392,-2.05164 7.28893,-5.04565 9.12226,-6.65337 3.84475,-3.3716 24.67047,-17.213941 25.89828,-17.213941 0.45251,0 5.76051,-2.334191 11.79556,-5.187091 21.21107,-10.026925 36.37719,-15.858798 43.53679,-16.741327 3.97686,-0.490207 8.3194,-1.473979 9.65014,-2.186159 1.33072,-0.712181 7.07693,-2.55373 12.76936,-4.092333 9.06213,-2.449395 15.18848,-2.875844 49.23861,-3.427455 41.79247,-0.677036 44.47604,-0.407699 68.04578,6.829463 5.71936,1.756147 12.07504,3.573681 14.12373,4.038968 2.04871,0.465285 8.64871,3.150195 14.66667,5.966463 6.01797,2.816269 16.22384,7.407467 22.67972,10.202663 6.45588,2.795195 12.0456,5.579936 12.4216,6.188312 0.376,0.608377 3.7939,3.208716 7.59537,5.778532 10.43177,7.051965 15.79995,11.072885 20.54287,15.387205 2.36379,2.15019 4.89216,3.90943 5.6186,3.90943 0.72644,0 2.70708,2.04009 4.40141,4.53354 1.69435,2.49344 7.03559,8.94344 11.86942,14.33333 12.69153,14.15147 14.44308,16.37846 24.43172,31.06337 11.05484,16.25241 21.67842,36.85476 24.7871,48.06976 0.60982,2.2 2.63375,8.33084 4.49762,13.62409 6.9732,19.80336 8.8343,33.68779 9.50046,70.87607 0.45702,25.51327 0.25264,29.07658 -1.95008,34 -1.35333,3.02492 -2.86293,8.29676 -3.35466,11.71522 -0.49175,3.41846 -2.0415,8.59028 -3.44391,11.49293 -1.40241,2.90265 -3.73209,9.54385 -5.17707,14.75821 -1.44497,5.21438 -4.52116,13.03406 -6.83596,17.37708 -3.56697,6.69232 -3.97042,8.34172 -2.64585,10.81671 0.85959,1.60616 1.89781,8.41467 2.30717,15.13 0.62092,10.18615 1.18623,12.52059 3.41094,14.08553 1.46666,1.03171 3.93085,3.36764 5.47597,5.19098 1.54513,1.82332 3.62868,3.9792 4.63011,4.79083 5.90496,4.78578 23.62265,25.05013 26.01516,29.75442 1.19682,2.35331 3.61224,5.71491 5.36757,7.47026 1.75535,1.75533 4.11421,4.92989 5.24196,7.0546 1.12774,2.12469 4.48886,6.41429 7.46915,9.53244 2.98029,3.11816 5.41871,6.25601 5.41871,6.97302 0,2.26934 4.30438,12.16435 4.9923,11.47643 1.239,-1.239 3.79886,2.54739 6.8703,10.16213 1.6892,4.18786 3.91114,8.31132 4.93766,9.16327 1.02652,0.85193 1.8664,2.35373 1.8664,3.33733 0,0.9836 3.3,8.65271 7.33334,17.04246 4.03333,8.38973 7.33333,16.47609 7.33333,17.96968 0,1.49359 0.6,3.08643 1.33333,3.53965 0.73334,0.45323 1.33334,2.09604 1.33334,3.6507 0,4.3653 6.46733,23.68264 7.92881,23.68264 2.19424,0 9.30432,31.6398 12.13484,54 1.54328,12.19136 1.89048,64.55829 0.55695,84 -2.11544,30.84099 -6.46207,59.47303 -10.06734,66.31524 -0.67096,1.27339 -1.21993,4.38797 -1.21993,6.92131 0,2.53335 -0.52119,4.92819 -1.1582,5.32188 -0.637,0.39369 -1.56264,3.27911 -2.05697,6.41203 -0.49432,3.13292 -2.05888,8.10621 -3.4768,11.05177 -1.41792,2.94556 -2.86432,7.44556 -3.21422,10 -0.77086,5.6278 -5.06848,18.0262 -9.69782,27.97777 -9.80503,21.07756 -15.36936,31.92803 -17.11722,33.37862 -1.07,0.88801 -1.94544,2.7411 -1.94544,4.11797 0,1.37688 -1.2,3.70341 -2.66666,5.17008 -4.72603,4.72603 -2.8377,5.62185 3.00532,1.42572 8.16642,-5.86468 34.49106,-32.08285 42.9327,-42.75905 2.02946,-2.56667 6.02364,-7.18143 8.87595,-10.25502 2.85232,-3.07358 5.18603,-6.22358 5.18603,-7 0,-0.77641 0.45,-1.43976 1,-1.4741 0.55,-0.0344 2.95825,-2.88435 5.35168,-6.33334 19.47064,-28.05769 25.88588,-35.92865 35.53967,-43.60421 2.767,-2.2 8.72341,-7.43346 13.23645,-11.6299 4.51304,-4.19644 8.86255,-7.64644 9.66555,-7.66666 0.80301,-0.0203 2.5228,-1.21114 3.82174,-2.64646 1.29896,-1.43533 6.64195,-4.27308 11.87332,-6.3061 5.23138,-2.03304 9.71159,-4.15868 9.95603,-4.72366 0.24445,-0.56497 1.18175,-1.02722 2.08289,-1.02722 0.90115,0 4.12218,-1.2 7.15782,-2.66667 3.03565,-1.46667 6.89836,-2.67125 8.58377,-2.67685 1.68543,-0.005 6.96441,-1.20102 11.73108,-2.65648 4.76667,-1.45547 10.95611,-2.65088 13.75432,-2.65648 2.79821,-0.005 6.27007,-0.64299 7.71523,-1.41643 4.20018,-2.24787 24.61699,-1.55883 40.53049,1.36785 11.8961,2.18786 17.4819,4.08334 29.5702,10.03455 8.197,4.03544 15.4401,7.33717 16.0958,7.33717 1.6875,0 21.5897,16.59002 26.0592,21.72234 2.0489,2.35272 6.2064,9.37766 9.239,15.611 3.0326,6.23333 7.118,13.73333 9.0788,16.66667 1.9608,2.93333 5.588,10.73333 8.0605,17.33333 l 4.4955,12 0.4143,31.88619 c 0.2697,20.75517 -0.068,32.36809 -0.9662,33.26666 -0.7593,0.75927 -1.3775,3.51048 -1.3739,6.11382 0.01,5.17081 -2.7398,14.34072 -7.4094,24.73333 -1.6475,3.66667 -3.4236,8.16667 -3.9469,10 -0.5233,1.83334 -2.8559,6.33334 -5.1835,10 -2.3276,3.66667 -5.1099,8.45834 -6.1828,10.64815 -1.0728,2.1898 -3.1506,5.4238 -4.6173,7.18663 -4.1929,5.0396 -15.602,16.16523 -16.5771,16.16523 -0.4849,0 -3.2535,2.4367 -6.1523,5.4149 -2.8988,2.9783 -8.2706,7.2122 -11.9373,9.4087 -3.6666,2.1966 -9.3666,5.7297 -12.6666,7.8513 -6.1644,3.9631 -9.2536,5.5587 -20.4997,10.5883 -11.86668,5.3071 -18.8097,7.7736 -28.20198,10.0186 -5.11409,1.2224 -10.49836,2.7432 -11.96503,3.3795 -1.46666,0.6363 -4.46666,1.4383 -6.66666,1.7821 -2.2,0.3437 -7.4957,1.2606 -11.76822,2.0374 -12.27484,2.2318 -53.55821,3.3129 -64.89845,1.6995 -5.5,-0.7825 -14.8,-2.0613 -20.66667,-2.8417 -5.86667,-0.7804 -12.76667,-1.9916 -15.33333,-2.6915 -2.56667,-0.6999 -6.76667,-1.5674 -9.33334,-1.9277 -2.56666,-0.3603 -6.7627,-1.2696 -9.32453,-2.0206 -2.56183,-0.751 -6.57641,-1.3655 -8.92131,-1.3655 -2.34489,0 -4.63426,-0.6 -5.08749,-1.3333 -0.45323,-0.7333 -3.22808,-1.3333 -6.16635,-1.3333 -2.93826,0 -6.43762,-0.5862 -7.77636,-1.3027 -1.33873,-0.7165 -4.44928,-1.5598 -6.91234,-1.8742 -5.60371,-0.7151 -12.06146,-2.273 -13.81162,-3.3319 -3.0761,-1.8613 -12.28764,-3.4955 -16,-2.8386 l -4,0.7078 -0.2442,29.3198 c -0.26477,31.7908 0.15075,34.4917 7.79264,50.6531 6.94162,14.6804 3.93271,26.6559 -6.67421,26.5637 -4.42413,-0.039 -20.29814,-4.1939 -27.93696,-7.3131 -6.57518,-2.6849 -23.56498,-0.282 -26.00067,3.6773 -0.58487,0.9507 -4.10908,5.0309 -7.83157,9.067 l -6.76816,7.3384 -10.83511,-0.09 c -5.95929,-0.05 -12.33509,-0.7549 -14.16843,-1.5673 z m 28.58556,-13.8935 c 5.69811,-6.9393 7.87071,-8.5624 13.96652,-10.4341 8.64239,-2.6537 21.36876,-2.1658 32.11459,1.2312 14.87514,4.7022 18.40626,5.2966 20.6087,3.4687 3.11574,-2.5858 2.56706,-5.48 -3.59984,-18.9883 l -5.6578,-12.3931 -0.42166,-34.8253 c -0.35924,-29.6702 -0.1236,-35.1234 1.59175,-36.8387 3.21645,-3.2165 12.75537,-4.0136 20.90519,-1.747 3.98218,1.1075 9.94033,2.7016 13.24033,3.5423 3.3,0.8408 8.81273,2.3552 12.25053,3.3653 3.43779,1.0102 7.89519,1.8367 9.90534,1.8367 2.01014,0 5.4974,0.5836 7.74946,1.2969 5.64308,1.7874 29.60714,6.5652 44.09467,8.7913 30.35639,4.6644 37.40887,5.0647 61.69851,3.5019 23.42031,-1.5069 26.63535,-2.0382 42.47652,-7.0195 4.49627,-1.4138 9.43258,-2.5706 10.96956,-2.5706 6.4198,0 35.87262,-13.2266 51.99172,-23.3483 9.4611,-5.9409 33.8692,-26.96693 38.5943,-33.24647 1.6851,-2.23954 5.148,-7.6719 7.6952,-12.0719 2.5473,-4.4 5.165,-8.9 5.8171,-10 1.1239,-1.89558 3.7697,-8.27543 9.6767,-23.33334 4.1978,-10.70102 5.4061,-20.90611 5.9794,-50.5 0.6641,-34.27772 1.0354,-32.89848 -19.2531,-71.5 -3.2762,-6.23333 -7.3647,-13.43333 -9.0855,-16 -5.8577,-8.73686 -21.6934,-20.45094 -39.3686,-29.12203 -14.19,-6.96132 -19.1518,-8.67383 -31.8541,-10.99397 -19.15892,-3.49951 -39.51808,-2.31675 -58.00437,3.36976 -3.66667,1.12789 -8.03662,2.0572 -9.71099,2.06514 -1.67439,0.008 -5.98639,1.50528 -9.58224,3.32744 -3.59585,1.82216 -10.53279,4.81668 -15.4154,6.65448 -4.8826,1.83782 -10.66663,4.84696 -12.85339,6.68699 -2.18676,1.84004 -4.37988,3.35916 -4.87362,3.37584 -0.49374,0.0167 -4.2946,3.16667 -8.44639,7 -4.15179,3.83332 -9.80819,8.76968 -12.56979,10.96968 -9.74527,7.76347 -15.23155,14.50626 -36.20505,44.49703 -2.75539,3.94004 -5.6098,7.84004 -6.34314,8.66667 -0.73333,0.82664 -6.72712,7.80297 -13.31953,15.50297 -12.76119,14.9052 -32.97051,35.34957 -40.68047,41.15361 -2.56666,1.93218 -5.45952,4.26306 -6.42857,5.17972 -2.45713,2.32432 -8.96639,2.08124 -11.47619,-0.42857 -3.2019,-3.20189 -2.42312,-8.44107 2.56238,-17.23809 14.11333,-24.90334 28.67572,-57.1333 28.67572,-63.46606 0,-1.51018 1.47177,-6.44813 3.27061,-10.9732 3.17921,-7.99746 5.08257,-14.59117 7.37844,-25.56075 0.61393,-2.93333 2.39193,-10.13333 3.95112,-16 4.64856,-17.49102 6.78744,-40.4063 7.63855,-81.837 0.83405,-40.60097 0.47986,-46.04423 -5.04259,-77.49633 -2.89959,-16.51406 -3.66651,-19.11406 -9.24236,-31.33334 -2.0078,-4.4 -4.66652,-11.9 -5.90827,-16.66666 -1.24176,-4.76667 -2.74181,-10.46667 -3.33345,-12.66667 -1.02096,-3.7964 -5.93825,-14.62542 -18.65973,-41.09299 -3.10872,-6.46781 -6.39471,-12.04459 -7.3022,-12.39283 -0.90751,-0.34824 -3.39754,-4.35638 -5.5334,-8.907 -2.13586,-4.55062 -5.49059,-10.07385 -7.45494,-12.27385 -1.96435,-2.2 -5.14859,-6.32709 -7.07607,-9.17131 -1.92749,-2.84422 -4.38428,-6.05106 -5.45954,-7.12632 -1.07526,-1.07526 -2.91755,-3.84817 -4.09399,-6.16202 -1.17644,-2.31386 -5.21245,-7.53058 -8.96892,-11.59271 -3.75647,-4.06213 -8.68936,-9.46213 -10.962,-12 -2.27263,-2.53787 -8.17816,-8.44835 -13.12339,-13.1344 -8.80805,-8.34644 -8.9756,-8.6318 -8.2204,-14 0.42402,-3.01395 0.15032,-9.07991 -0.6082,-13.47991 -0.75853,-4.4 -1.70885,-9.89259 -2.11185,-12.20575 -0.53227,-3.05514 0.19983,-5.797 2.676,-10.02226 3.80781,-6.49755 13.41859,-33.55971 16.19891,-45.61314 0.99477,-4.31262 2.52676,-9.57472 3.4044,-11.69353 1.1615,-2.80413 1.40173,-12.82463 0.8828,-36.82554 -0.75499,-34.91844 -1.94583,-43.70429 -8.41231,-62.0645 -1.85483,-5.2664 -3.84715,-11.37528 -4.42739,-13.57528 C 692.55511,205.51429 680.02142,181.37964 670.90429,168 662.1209,155.11014 658.20667,150.23224 644.69125,135.33334 642.0303,132.4 638.30647,127.75 636.41607,125 c -1.8904,-2.75 -3.8792,-5 -4.41957,-5 -0.54037,0 -3.39923,-2.1184 -6.353,-4.70756 -11.96748,-10.49021 -29.70835,-22.223104 -42.34566,-28.00523 -5.84713,-2.675322 -15.74077,-7.209395 -21.98585,-10.075715 -6.24509,-2.866321 -12.30116,-5.211493 -13.45793,-5.211493 -1.15679,0 -5.44155,-1.148544 -9.5217,-2.552321 -4.08014,-1.403777 -12.8451,-3.867145 -19.4777,-5.474151 -11.33199,-2.745623 -14.25431,-2.881091 -48.45695,-2.246307 -37.52214,0.696393 -40.78751,1.105861 -59.35563,7.443027 -4.5602,1.556364 -10.088,2.829752 -12.28398,2.829752 -10.11912,0 -69.81085,29.073878 -74.16878,36.125168 -0.42122,0.68153 -4.17611,3.38915 -8.34424,6.01694 -10.13682,6.39073 -28.405,24.4822 -35.53498,35.19123 -5.59132,8.39801 -5.78963,9.05932 -6.39709,21.33333 -0.58346,11.789 -1.02164,13.40575 -6.32395,23.33334 -7.85304,14.70334 -15.78489,34.30504 -18.07423,44.66617 -1.05316,4.76639 -1.91482,14.71261 -1.91482,22.10273 v 13.43658 l -8.75728,13.63478 c -14.54091,22.63971 -15.85012,25.82375 -15.72672,38.2479 0.1453,14.62933 4.59509,28.14844 13.79522,41.91184 2.20588,3.3 4.01326,6.69323 4.0164,7.54052 0.003,0.84728 2.14263,4.14728 4.7544,7.33333 2.61179,3.18604 5.70056,6.99282 6.86395,8.45948 13.62331,17.17482 46.39306,49.51562 57.45672,56.70465 8.4984,5.52214 10.61879,9.04392 9.09664,15.10868 -0.55762,2.22174 -2.80789,3.98534 -7.65568,6 -3.77626,1.56933 -7.98064,2.85334 -9.34305,2.85334 -1.36243,0 -6.53241,1.72947 -11.48887,3.84326 -4.95645,2.11378 -12.61173,4.94922 -17.01173,6.30098 -4.4,1.35175 -9.2,3.15131 -10.66667,3.99903 -2.40773,1.39165 -8.20008,3.1996 -24,7.49107 -2.93333,0.79673 -9.03083,3.45494 -13.54997,5.90713 -4.51916,2.4522 -8.90616,4.45853 -9.7489,4.45853 -0.84273,0 -5.84524,2.05487 -11.11669,4.56636 -5.27144,2.51151 -11.08444,4.9936 -12.91777,5.51579 -1.83334,0.52217 -4.96896,2.31648 -6.96807,3.98735 -1.99909,1.67085 -5.59909,3.46148 -8,3.97917 -3.94581,0.85079 -15.3818,6.64157 -17.03194,8.62436 -0.36666,0.44059 -3.06666,2.22944 -6,3.97523 -2.93333,1.74577 -7.25301,4.81916 -9.59929,6.82972 -2.34628,2.01057 -12.24628,8.93338 -22,15.38404 l -17.73404,11.72845 -20.666668,1.52338 c -20.558511,1.5154 -28,3.32392 -28,6.80486 0,2.45804 7.141328,16.45371 13.671287,26.79318 4.690874,7.42746 5.21398,9.05245 4.450705,13.82572 -1.056224,6.60525 -4.317299,13.18281 -7.729984,15.5913 -1.399323,0.98758 -5.059975,4.18984 -8.134783,7.11616 -3.074807,2.92631 -6.640559,6.27328 -7.923892,7.43771 -1.64773,1.49505 -2.333334,4.14045 -2.333334,9.00316 0,6.21416 0.357752,7.05063 3.666667,8.57305 2.016667,0.92787 12.366667,2.26148 23.000001,2.9636 10.633333,0.70214 30.733331,2.79366 44.666671,4.64783 40.49566,5.38897 48.92617,5.42511 92.28449,0.39563 14.98211,-1.73791 19.08754,-1.22735 23.20006,2.88517 2.35717,2.35717 2.63873,3.82859 1.97082,10.29943 -2.54812,24.68663 -2.11844,40.87523 1.79294,67.54936 2.77422,18.91925 5.459,36.30745 6.22234,40.29972 0.62134,3.24947 -0.028,5.75043 -2.65853,10.23904 -1.91437,3.26663 -4.2652,6.73176 -5.22405,7.70028 -1.42023,1.43458 -8.24335,10.97636 -16.99091,23.76096 -3.31825,4.84966 -8.05951,13.1017 -10.44909,18.18644 -1.42672,3.03588 -3.24963,5.92496 -4.05091,6.42019 -3.5998,2.22479 -16.03033,27.72764 -16.07708,32.98417 -0.0107,1.24162 -1.92017,7.84162 -4.24251,14.66667 -5.2558,15.44613 -7.29104,27.08464 -9.16489,52.4092 -0.48651,6.57511 1.69385,35.32504 2.94047,38.77248 2.17745,6.02163 -1.36407,13.80983 -8.54162,18.78383 -2.91715,2.0216 -8.63251,6.8485 -12.70079,10.7263 -4.06828,3.8779 -7.80618,7.0507 -8.30645,7.0507 -0.50027,0 -1.56605,1.4408 -2.36839,3.2018 -1.37666,3.0214 -1.18226,3.239 3.45264,3.8636 8.24436,1.1111 15.24251,3.3153 16.41943,5.1715 1.99401,3.145 1.22467,11.74 -1.53507,17.1496 -3.1244,6.1243 -3.95645,5.9269 13.36043,3.169 21.62386,-3.4438 31.24323,-4.5207 33.66358,-3.7685 3.09377,0.9614 4.33088,6.3838 2.48804,10.9056 -2.24987,5.5204 -3.89254,15.9026 -2.79667,17.6757 0.71224,1.1524 2.35532,0.8481 6.14204,-1.1377 6.14011,-3.2198 17.40997,-7.8721 31.16968,-12.8671 5.5,-1.9966 11.97036,-4.4702 14.37857,-5.4968 2.40822,-1.0267 5.29598,-1.8667 6.41727,-1.8667 1.12128,0 5.15092,-1.4308 8.95476,-3.1797 9.20075,-4.23 26.78282,-10.1088 34.32183,-11.4759 7.69783,-1.3959 22.54565,-8.365 26.24891,-12.3204 1.55717,-1.6632 4.05261,-7.524 5.54544,-13.024 4.36625,-16.0865 4.90928,-17.6534 8.78425,-25.3456 7.76637,-15.41708 14.31509,-23.83008 21.27743,-27.33464 3.62732,-1.82585 8.37458,-3.31973 10.54948,-3.31973 4.64809,0 15.62951,3.04136 26.8554,7.43776 18.05621,7.07133 55.4304,13.44697 74.34575,12.68258 3.49016,-0.14104 7.99016,0.60078 10,1.64848 12.26514,6.39365 19.0738,7.92155 36.78115,8.25355 9.64688,0.1809 17.91828,0.3999 18.3809,0.4866 1.6438,0.3082 10.4062,19.7037 15.13035,33.491 14.49387,42.2998 15.07801,44.6855 17.39481,71.0417 1.03494,11.7735 2.3509,21.8603 2.92438,22.4151 1.08856,1.0532 4.26226,0.5018 23.04266,-4.0031 6.23334,-1.4952 14.06683,-2.7339 17.40778,-2.7528 7.70968,-0.043 21.4764,4.5604 25.50252,8.5285 4.22867,4.1678 12.98648,9.4873 17.42304,10.5827 2.01667,0.498 3.66667,1.5226 3.66667,2.277 0,0.8348 3.22905,1.2162 8.25222,0.9746 l 8.25222,-0.397 z M 195.75001,692.42254 c 0.96249,-0.38516 2.11249,-0.3378 2.55556,0.1052 0.44305,0.44305 -0.34446,0.75819 -1.75,0.70029 -1.55327,-0.064 -1.8692,-0.37992 -0.80556,-0.80554 z M 702.66669,202.66667 c 0,-0.73333 0.6,-1.33333 1.33333,-1.33333 0.73333,0 1.33333,0.6 1.33333,1.33333 0,0.73334 -0.6,1.33334 -1.33333,1.33334 -0.73333,0 -1.33333,-0.6 -1.33333,-1.33334 z"
       id="path484" />
  </g>
</svg>
