<?xml version="1.0" encoding="UTF-8" standalone="no"?>
<!-- Created with Inkscape (http://www.inkscape.org/) -->

<svg
   version="1.1"
   id="svg2075"
   width="497.33334"
   height="732"
   viewBox="0 0 497.33334 732"
   sodipodi:docname="Lucario.svg"
   inkscape:version="1.2.1 (9c6d41e, 2022-07-14)"
   xmlns:inkscape="http://www.inkscape.org/namespaces/inkscape"
   xmlns:sodipodi="http://sodipodi.sourceforge.net/DTD/sodipodi-0.dtd"
   xmlns="http://www.w3.org/2000/svg"
   xmlns:svg="http://www.w3.org/2000/svg">
  <defs
     id="defs2079" />
  <sodipodi:namedview
     id="namedview2077"
     pagecolor="#ffffff"
     bordercolor="#000000"
     borderopacity="0.25"
     inkscape:showpageshadow="2"
     inkscape:pageopacity="0.0"
     inkscape:pagecheckerboard="0"
     inkscape:deskcolor="#d1d1d1"
     showgrid="false"
     inkscape:zoom="0.32240437"
     inkscape:cx="-122.51695"
     inkscape:cy="366"
     inkscape:window-width="1470"
     inkscape:window-height="828"
     inkscape:window-x="0"
     inkscape:window-y="37"
     inkscape:window-maximized="1"
     inkscape:current-layer="g2081" />
  <g
     inkscape:groupmode="layer"
     inkscape:label="Image"
     id="g2081">
    <path
       style="fill:#000000;stroke-width:1.33333"
       d="m 332.7181,704.08321 c -0.49676,-0.80377 -5.3704,-1.41654 -11.26627,-1.41654 -8.60827,0 -11.16468,-0.52152 -14.90189,-3.04003 -5.77694,-3.89307 -7.83908,-8.06739 -7.86362,-15.91792 -0.0191,-6.08583 0.21916,-6.46769 7.29347,-11.69379 12.70827,-9.38814 12.67159,-8.5702 1.82499,-40.69384 -5.15734,-15.27413 -11.47508,-34.69216 -14.03944,-43.15117 -5.76635,-19.02139 -8.73812,-24.86569 -18.98375,-37.3334 -4.44299,-5.40657 -10.53175,-13.80657 -13.53057,-18.66667 l -5.45243,-8.83652 H 236.4146 217.03062 l -4.24011,-4.90378 c -2.33205,-2.69708 -7.47548,-10.3696 -11.42984,-17.05003 -4.79932,-8.10792 -7.88309,-12.01879 -9.2752,-11.76288 -1.147,0.21084 -4.78547,5.59487 -8.08547,11.96449 -3.3,6.36963 -7.10956,12.78268 -8.46568,14.25124 -3.19612,3.46108 -11.36601,5.14302 -30.5543,6.2902 l -15.54103,0.92912 -0.85481,5.70027 c -1.24648,8.31212 0.34127,15.90176 5.79984,27.72392 l 4.83696,10.47588 -4.42763,20.85745 c -6.28193,29.59266 -6.62526,31.76115 -6.71387,42.4056 -0.0726,8.71743 -0.39849,9.82159 -3.74614,12.69112 -7.50729,6.43507 -16.72154,17.92702 -21.81485,27.20727 -9.419061,17.16203 -8.083493,16.50925 -33.717697,16.47972 -12.656954,-0.0145 -22.375755,-0.57187 -22.831428,-1.30916 C 45.53299,684.57769 42.574819,684 39.395651,684 c -4.538372,0 -6.670023,-0.83112 -9.921311,-3.86828 -3.46625,-3.23796 -4.141006,-4.86301 -4.141006,-9.97301 0,-9.19356 3.520898,-16.76127 8.830364,-18.9797 2.429525,-1.01512 5.786591,-1.88065 7.460144,-1.92341 1.673555,-0.0428 8.727748,-1.99275 15.675987,-4.33333 9.844624,-3.31626 12.99734,-4.99138 14.283037,-7.58894 9.338807,-18.86768 21.113929,-46.07464 25.009033,-57.7845 6.329631,-19.02882 7.189181,-27.56824 3.606311,-35.8281 -1.498063,-3.45358 -3.055505,-8.40358 -3.460981,-11 -0.405474,-2.5964 -1.064416,-6.82073 -1.464312,-9.3874 -0.436277,-2.80017 -1.484084,-4.66666 -2.619754,-4.66666 -3.030295,0 -4.52492,-4.26618 -6.233246,-17.79183 -1.53334,-12.14021 -0.847256,-24.13411 2.47773,-43.31492 l 0.769685,-4.44007 -6.169427,0.92516 c -6.806856,1.02075 -11.967695,-1.22374 -13.4336,-5.84241 -0.451032,-1.42107 -3.449417,-3.54516 -6.823167,-4.83361 -6.84876,-2.61556 -9.27972,-5.71948 -10.517329,-13.42882 -1.202426,-7.49016 0.496356,-10.98818 9.771271,-20.12036 l 8.052049,-7.92812 -1.863453,-5.4087 c -2.604231,-7.55884 -4.919835,-26.28468 -4.428984,-35.81632 0.360849,-7.0072 0.766557,-8.05055 3.269208,-8.40736 3.005226,-0.42846 15.632205,8.86672 21.809435,16.0547 l 3.333333,3.87876 8.089352,-11.13934 c 6.50697,-8.96035 10.32886,-12.66059 19.5381,-18.91618 9.04125,-6.14148 12.21574,-9.18605 15.09614,-14.47828 2.00606,-3.6858 7.54713,-11.49256 12.31349,-17.34834 9.2694,-11.38806 18.47979,-25.66748 19.19339,-29.75668 0.3541,-2.02914 -0.63159,-2.64718 -5.23744,-3.28398 -7.02982,-0.97193 -13.28732,-6.5958 -14.49363,-13.026 -1.01031,-5.38538 1.92156,-15.79502 7.66253,-27.20594 2.11094,-4.19576 3.83807,-7.91768 3.83807,-8.27095 0,-0.35327 -2.6494,-1.81425 -5.88755,-3.24664 -3.23814,-1.43239 -6.92497,-4.18767 -8.19294,-6.12284 -3.03126,-4.62627 -1.35396,-7.83176 9.22096,-17.62227 l 7.88533,-7.30044 -1.51291,-9.16094 c -0.83209,-5.03854 -1.51289,-13.97474 -1.51289,-19.85824 v -10.69728 l -7.29917,-11.19791 c -14.32562,-21.97744 -32.05305,-60.945761 -32.96409,-72.461435 -0.38523,-4.869362 -0.23136,-5.086837 3.41558,-4.82721 8.70739,0.61988 40.90215,23.377529 58.18101,41.126665 5.5,5.64969 11.09639,11.44265 12.43643,12.87324 1.34003,1.43059 3.33911,2.25468 4.44239,1.83131 1.10326,-0.42337 2.81973,-0.76976 3.81434,-0.76976 1.46214,0 1.80599,-5.07885 1.79583,-26.524178 -0.007,-14.588299 0.65263,-30.338299 1.46565,-35 2.9883,-17.134175 5.8856,-29.326043 7.4908,-31.52128 1.53191,-2.095003 1.85295,-2.067284 4.59228,0.396495 5.17166,4.651413 14.20626,18.280114 21.66016,32.6744 7.27008,14.039272 10.91895,22.918626 24.0979,58.641233 7.05624,19.12652 7.19532,19.36628 13.00172,22.41323 12.26774,6.4376 46.65684,27.63564 56.06022,34.5565 17.72958,13.04894 36.31303,32.22604 41.91444,43.25342 6.53567,12.86658 5.39167,24.13097 -3.40886,33.56561 -5.10626,5.47417 -5.14568,5.4886 -14.90822,5.45804 -5.38362,-0.0168 -11.05905,-0.50351 -12.61205,-1.08145 -2.32051,-0.86356 -3.33664,-0.22078 -5.70253,3.60733 -3.42387,5.53993 -8.44251,7.56065 -18.77754,7.56065 -6.2748,0 -8.66702,-0.72502 -13.95993,-4.23089 -3.51312,-2.327 -8.08367,-6.57241 -10.15677,-9.43425 -4.40303,-6.0782 -15.21396,-27.09723 -20.57439,-40.00152 -2.05621,-4.95 -4.21732,-9 -4.80243,-9 -0.58512,0 -6.47448,5.478 -13.08745,12.17333 -9.4214,9.53872 -11.76885,12.64937 -10.84645,14.37288 0.97732,1.82613 2.66716,2.07451 9.95414,1.46304 4.82735,-0.40507 8.77699,-0.23097 8.77699,0.38689 0,0.61787 -1.84905,3.81091 -4.10901,7.09564 -4.61454,6.70699 -4.00844,8.95139 2.7841,10.3099 6.40343,1.28069 13.3473,8.66294 15.26956,16.23358 1.63812,6.4516 1.9115,6.72139 11.68196,11.5288 14.56927,7.1686 59.32304,22.35498 72.07263,24.45654 6.03208,0.99429 14.79559,3.04641 19.47446,4.56026 12.16757,3.93684 12.7049,3.79458 16.04285,-4.24753 4.00609,-9.65189 14.84245,-25.92481 18.32212,-27.51429 3.80169,-1.73658 6.31637,1.07113 9.65783,10.78321 2.82506,8.2112 6.58042,24.5178 7.30373,31.71447 0.45031,4.48021 0.87583,4.81325 11.65024,9.11802 13.28285,5.307 14.38164,6.1907 18.96077,15.24915 3.0713,6.07564 3.3519,7.62607 2.15995,11.9346 -0.75347,2.72349 -1.94771,5.30891 -2.65389,5.74535 -0.70618,0.43645 -1.28396,2.02872 -1.28396,3.53837 0,4.05661 -9.21404,12.58407 -15.36628,14.22124 -2.91522,0.77577 -8.90039,2.39435 -13.30039,3.59683 l -8,2.18632 8.2916,8.4368 c 11.89973,12.1081 29.7084,40.60093 29.7084,47.53169 0,2.90284 -29.99856,-3.98899 -47.32859,-10.8732 -10.24844,-4.07112 -10.40697,-4.09007 -13.18893,-1.57571 -5.91019,5.34166 -28.0073,19.2354 -40.47646,25.44991 -12.42484,6.19241 -25.15384,10.89741 -42.13614,15.57471 -7.42279,2.0444 -7.75539,2.31694 -6.93375,5.68164 0.47467,1.94382 1.20876,9.9471 1.63132,17.78506 l 0.76828,14.25086 -4.44736,2.7046 c -2.44605,1.48753 -6.12159,3.07232 -8.16787,3.52176 -4.81184,1.05685 -4.78064,3.6591 0.17491,14.5883 3.04612,6.7181 5.27783,9.546 10.23613,12.97074 10.65114,7.3568 14.95358,11.6183 19.68115,19.49392 9.06771,15.10577 27.8996,51.54016 33.45001,64.71629 3.12839,7.42648 9.66283,21.98025 14.52098,32.34171 11.52308,24.57638 15.81085,41.19408 11.34176,43.95613 -0.84767,0.52389 -7.59767,1.22123 -15,1.54963 -7.40232,0.32841 -19.85023,0.87262 -27.66199,1.20937 -9.22964,0.39788 -14.50979,0.11627 -15.07869,-0.80427 z M 368,699.46635 c 4.76667,-0.23219 11.24386,-0.5071 14.39375,-0.61092 l 5.7271,-0.18876 -0.90836,-5 c -1.3924,-7.66436 -6.9707,-22.5134 -12.89791,-34.33334 -4.99923,-9.96933 -9.97063,-21.06333 -17.84946,-39.83214 -3.51209,-8.36647 -18.13785,-36.07426 -28.14348,-53.31647 -4.94526,-8.52193 -7.85024,-11.79328 -15.53548,-17.49483 -5.19905,-3.85708 -10.40214,-8.14021 -11.56242,-9.51805 -4.04682,-4.80563 -8.04975,-16.47696 -7.6297,-22.24588 0.39347,-5.40384 0.61854,-5.65157 7.31483,-8.0516 3.79988,-1.36192 7.27459,-3.42927 7.72157,-4.59409 0.447,-1.16484 0.0999,-9.23627 -0.77142,-17.93651 -1.053,-10.51472 -1.1384,-16.26437 -0.25474,-17.14804 0.73119,-0.73119 8.46935,-3.43771 17.19591,-6.01449 23.51628,-6.94391 50.17534,-20.72698 71.39547,-36.91236 6.04264,-4.60895 9.28448,-4.53052 21.92348,0.53037 9.74624,3.90259 35.14984,11.04289 36.0578,10.13493 0.23095,-0.23094 -1.13143,-3.33406 -3.02751,-6.89584 -7.22466,-13.57152 -15.42694,-24.9832 -23.80037,-33.11308 -13.09193,-12.71114 -12.50451,-14.10133 8.31616,-19.68085 5.42344,-1.45337 11.34343,-3.61396 13.15555,-4.80131 4.46833,-2.92776 11.56365,-17.39664 10.53698,-21.48718 -1.82026,-7.25254 -6.58657,-12.1298 -15.86333,-16.23263 -5.04473,-2.23113 -9.90175,-4.05661 -10.79335,-4.05661 -3.31577,0 -5.5977,-4.96396 -7.04876,-15.33334 -1.66412,-11.89206 -5.90701,-26.68188 -8.78272,-30.61462 -1.77017,-2.42087 -2.24222,-2.01658 -7.80606,6.68564 -3.25708,5.09428 -7.49562,12.71232 -9.41898,16.92898 -3.48549,7.6414 -3.51634,7.66667 -9.36205,7.66667 -3.22576,0 -9.28467,-1.17653 -13.46424,-2.61451 -4.17956,-1.43798 -13.22931,-3.57357 -20.11054,-4.74576 -6.88477,-1.17278 -21.58492,-5.39358 -32.68758,-9.38548 C 312.92318,295.26441 303.28272,292 302.5969,292 c -2.33471,0 -25.95248,-11.61648 -27.40419,-13.47884 -0.79507,-1.01997 -2.22696,-4.74129 -3.18199,-8.2696 -1.8073,-6.67705 -6.6684,-11.62695 -13.34405,-13.58784 -7.73487,-2.27204 -10.1004,-8.2186 -5.84988,-14.70569 l 2.15011,-3.2815 -6.3489,0.87022 c -5.26961,0.72228 -6.65509,0.45146 -8.1501,-1.59311 -4.18556,-5.72409 -2.4243,-9.46639 10.72454,-22.78728 11.38363,-11.53256 12.92626,-12.65061 16.91774,-12.26135 4.2468,0.41416 4.64354,0.99026 12.00494,17.43163 15.73062,35.13368 26.58899,46.69348 41.72775,44.42328 4.96092,-0.74393 6.82047,-1.88037 10.33236,-6.31449 4.19612,-5.29804 4.40599,-5.38736 10.38704,-4.42112 16.26103,2.62696 22.41347,0.54908 27.26025,-9.20672 5.78597,-11.6462 1.37051,-22.52522 -16.92482,-41.70027 -14.66126,-15.36621 -28.58336,-25.73989 -57.56436,-42.89249 -12.46667,-7.37848 -24.40276,-14.49754 -26.52464,-15.82012 -2.4502,-1.52723 -4.77674,-4.83738 -6.37583,-9.07138 -1.38483,-3.66666 -4.66791,-12.36666 -7.29575,-19.33333 -2.62784,-6.96667 -6.60317,-17.466667 -8.83406,-23.333333 -8.03635,-21.133416 -28.1731,-58 -31.67995,-58 -1.15415,0 -4.44851,14.539346 -6.55324,28.92207 -0.77176,5.273806 -1.4032,21.038656 -1.4032,35.033002 V 124.066 l -3.42013,1.30033 c -8.28788,3.15105 -10.8774,1.97025 -22.37839,-10.20436 C 174.89067,108.83439 165.2,99.795409 159.33334,95.075356 148.62738,86.461825 126.5101,72 124.04291,72 c -4.59407,0 21.96389,55.9999 36.14064,76.20583 1.91096,2.72366 2.48249,5.94957 2.48041,14 -0.001,5.75346 0.96087,15.71098 2.13858,22.12784 l 2.14129,11.66701 -9.54083,9.44667 c -10.77514,10.66882 -10.78042,11.32521 -0.13173,16.38088 3.31667,1.57464 6.2368,3.93533 6.48921,5.246 0.25242,1.31065 -1.93242,7.30512 -4.85518,13.32105 -7.07219,14.55668 -8.341,19.48751 -6.27746,24.39523 2.33488,5.55306 5.48132,7.68821 12.52348,8.49832 5.62658,0.64728 6.22152,1.05712 6.62164,4.56146 0.63663,5.57571 -6.33054,18.39372 -17.54136,32.27216 -5.2607,6.5125 -11.67964,15.44915 -14.2643,19.85923 -3.58995,6.12535 -6.87518,9.51385 -13.91569,14.35319 -12.02148,8.263 -14.31336,10.46605 -22.88542,21.99846 C 98.258379,372.93607 95.101268,376 93.205571,376 c -1.573823,0 -7.197841,-4.03873 -12.990469,-9.32876 -5.618298,-5.13081 -10.736054,-9.33081 -11.37279,-9.33333 -1.750102,-0.007 0.436765,21.99046 3.30144,33.2087 1.387598,5.43398 2.522916,11.00463 2.522916,12.37923 0,1.3746 -3.9,6.19277 -8.666667,10.70704 -7.013196,6.64184 -8.663194,8.98611 -8.64846,12.28744 0.03493,7.8264 1.376386,9.915 8.546887,13.3072 4.284566,2.02692 7.543126,4.61611 8.526938,6.77535 1.520338,3.33677 1.998724,3.47596 10.583474,3.07926 l 8.991161,-0.41546 -0.140886,4.66666 C 93.781621,455.9 92.692887,464.6 91.439693,472.66667 c -1.938236,12.47621 -2.044298,16.4831 -0.710165,26.82897 1.693124,13.12977 1.928495,13.76317 5.93714,15.97719 2.007697,1.10886 2.879275,3.41525 3.527032,9.33333 0.4732,4.32328 2.4687,12.32945 4.43443,17.79151 3.38261,9.39898 3.487,10.39896 1.94876,18.66666 -2.28738,12.2941 -10.843069,36.56558 -18.515702,52.52684 -3.580368,7.44819 -8.00373,16.94223 -9.829692,21.09786 -1.825964,4.15564 -4.725035,8.4555 -6.442382,9.55525 -3.059253,1.95908 -20.690069,7.50757 -30.994679,9.75415 -6.236727,1.35972 -10.049216,5.9485 -11.008748,13.25034 -0.588337,4.47712 -0.148568,5.72007 3.097648,8.75507 4.440155,4.15125 8.992531,4.89725 35.309651,5.78621 21.374646,0.722 22.670178,0.16062 29.121274,-12.61893 4.4859,-8.88652 18.04828,-26.43979 22.86898,-29.59843 3.02848,-1.98433 3.30967,-3.0466 3.51996,-13.29798 0.14974,-7.29972 2.01109,-19.18695 5.39819,-34.47471 5.72977,-25.86147 5.93517,-21.57017 -1.91462,-40 -2.36829,-5.56031 -3.13113,-9.85288 -3.15512,-17.75432 -0.0459,-15.10003 -0.13928,-15.01116 16.90809,-16.08595 7.91648,-0.49912 17.89592,-1.62009 22.17653,-2.49106 8.76104,-1.78258 10.33713,-3.37779 16.76387,-16.96711 5.03532,-10.64717 7.59081,-13.36823 12.55486,-13.36823 3.97052,0 8.89834,3.17262 8.89834,5.72891 0,2.64545 15.02186,25.03435 17.80196,26.5324 1.75072,0.94339 10.10552,1.58157 21.48514,1.64117 l 18.62043,0.0975 6.71291,10.84808 c 3.69209,5.96644 9.11833,13.46644 12.0583,16.66667 8.62558,9.38909 13.55851,18.27701 18.02984,32.48525 2.30779,7.33333 8.94247,27.80129 14.74371,45.48435 5.80124,17.68305 10.54771,33.73132 10.54771,35.66282 0,3.87503 -7.31062,12.84055 -13.40674,16.44162 -4.20513,2.48404 -5.56896,7.1268 -3.68285,12.53728 2.00384,5.74822 6.46387,7.86596 16.70935,7.93406 4.9758,0.0331 10.8469,0.90639 13.0469,1.94068 2.84662,1.33828 7.07571,1.68934 14.66667,1.21744 5.86667,-0.36469 14.56667,-0.85305 19.33333,-1.08524 z M 301.6749,451.66667 c -0.72507,-0.91667 -3.269,-7.57968 -5.6532,-14.8067 -4.97488,-15.07994 -4.07944,-14.0273 -35.89235,-42.1933 -21.49189,-19.02815 -35.44881,-33.61283 -39.55421,-41.33334 -1.78958,-3.3654 -2.43102,-7.17773 -2.30039,-13.67197 0.46679,-23.20672 13.18171,-38.09883 24.75575,-28.99469 6.5156,5.12517 14.97892,1.94185 21.0441,-7.91535 3.12728,-5.08247 4.94486,-6.75132 7.35295,-6.75132 3.56845,0 22.87616,5.37336 33.43875,9.30604 13.71061,5.10477 39.91417,19.03681 46.68626,24.82237 4.20735,3.59446 14.46667,9.5069 26.08283,15.03151 15.28186,7.26801 20.1281,10.25204 24.0041,14.78027 6.16097,7.1977 9.31113,13.8148 8.77802,18.43869 -0.40545,3.51653 -0.63468,3.60971 -7.93718,3.22591 -7.42679,-0.39034 -7.55787,-0.33268 -10.61139,4.66666 -16.96853,27.78155 -44.14584,51.6298 -71.8614,63.05878 -10.37874,4.27985 -16.20783,5.02274 -18.33264,2.33644 z m 23.00113,-10.27538 c 23.61153,-11.71133 44.33636,-29.78564 58.38811,-50.9208 9.95927,-14.97966 10.27695,-15.2231 17.66051,-13.5335 3.2681,0.74785 5.94202,1.11317 5.94202,0.81182 0,-1.46053 -4.77909,-9.60874 -8.15884,-13.91058 -2.88618,-3.6736 -8.67801,-7.22254 -24.21613,-14.83836 -11.70176,-5.73548 -23.19248,-12.40719 -26.90903,-15.62383 -11.79004,-10.20421 -43.58012,-24.27307 -74.20681,-32.84057 -1.4437,-0.40387 -2.71112,0.73309 -3.83096,3.43664 -2.34014,5.64956 -9.60483,11.63498 -16.32739,13.45222 -5.01221,1.3549 -6.31465,1.20347 -11.01751,-1.28093 -2.93333,-1.54961 -6.33978,-2.81581 -7.56989,-2.81377 -5.46373,0.009 -11.76344,14.63873 -11.76344,27.318 0,5.22948 0.88931,8.21956 3.79445,12.758 5.39984,8.43564 44.97404,46.25156 60.55055,57.86028 5.53295,4.12356 11.22263,14.7414 15.21781,28.3989 2.15156,7.35507 2.82895,8.33171 5.77988,8.33334 1.83848,10e-4 9.33848,-2.97207 16.66667,-6.60686 z M 125.81436,395.33035 c -1.17345,-3.05796 0.52179,-8.2496 6.74735,-20.66368 3.12597,-6.23334 6.40733,-14.26398 7.29192,-17.84586 2.97375,-12.04132 9.8864,-23.1247 25.25188,-40.48748 6.67283,-7.5402 9.35359,-9.66666 12.1864,-9.66666 4.50412,0 11.97703,3.61406 13.00339,6.28874 0.42117,1.09755 0.10773,7.33999 -0.69652,13.87207 -2.5963,21.08671 -5.70507,25.12795 -48.8328,63.48003 -7.99671,7.11121 -13.44756,8.94237 -14.95162,5.02284 z m 33.3577,-28.27595 c 19.21873,-16.77448 23.70036,-24.57533 26.70565,-46.48463 0.71573,-5.21794 0.55145,-5.52246 -4.20209,-7.78928 l -4.94696,-2.35902 -6.41866,7.1226 c -7.65476,8.49426 -18.94605,23.95234 -22.24644,30.45593 -1.3025,2.56667 -3.14457,7.96667 -4.09348,12 -0.9489,4.03333 -3.70052,10.93333 -6.11469,15.33333 -2.41417,4.4 -5.36981,10.35171 -6.56806,13.226 l -2.17864,5.226 8.44566,-7.61705 c 4.64511,-4.18939 14.37308,-12.79064 21.61771,-19.11388 z"
       id="path2202" />
  </g>
</svg>
