<?xml version="1.0" encoding="UTF-8" standalone="no"?>
<!-- Created with Inkscape (http://www.inkscape.org/) -->

<svg
   version="1.1"
   id="svg3089"
   width="182.39999"
   height="173.75999"
   viewBox="0 0 182.39999 173.75999"
   sodipodi:docname="Tortank.svg"
   inkscape:version="1.2.1 (9c6d41e, 2022-07-14)"
   xmlns:inkscape="http://www.inkscape.org/namespaces/inkscape"
   xmlns:sodipodi="http://sodipodi.sourceforge.net/DTD/sodipodi-0.dtd"
   xmlns="http://www.w3.org/2000/svg"
   xmlns:svg="http://www.w3.org/2000/svg">
  <defs
     id="defs3093" />
  <sodipodi:namedview
     id="namedview3091"
     pagecolor="#ffffff"
     bordercolor="#000000"
     borderopacity="0.25"
     inkscape:showpageshadow="2"
     inkscape:pageopacity="0.0"
     inkscape:pagecheckerboard="0"
     inkscape:deskcolor="#d1d1d1"
     showgrid="false"
     inkscape:zoom="1.3581953"
     inkscape:cx="3.6813558"
     inkscape:cy="86.879997"
     inkscape:window-width="1463"
     inkscape:window-height="456"
     inkscape:window-x="0"
     inkscape:window-y="37"
     inkscape:window-maximized="0"
     inkscape:current-layer="g3095" />
  <g
     inkscape:groupmode="layer"
     inkscape:label="Image"
     id="g3095">
    <path
       style="fill:#000000;stroke-width:0.32"
       d="m 138.04465,172.9304 c -3.35484,-2.23607 -7.34673,-7.25565 -9.69458,-12.19039 l -1.08992,-2.29082 -3.45865,3.4954 c -4.4673,4.51478 -5.3057,4.60806 -6.96944,0.7754 -0.2292,-0.528 -0.48271,-2.4 -0.56335,-4.16 -0.18276,-3.98906 -0.77696,-6.64583 -2.55675,-11.4318 -1.53143,-4.11812 -1.93051,-5.76968 -2.14271,-8.86756 -0.0932,-1.36005 -0.30939,-2.18245 -0.63675,-2.42182 -0.27263,-0.19935 -1.69197,-0.54333 -3.1541,-0.7644 -12.96028,-1.9596 -22.830936,-4.47955 -29.680833,-7.57745 -3.043811,-1.37658 -3.23056,-1.42013 -4.254806,-0.99217 -0.589194,0.24618 -1.663405,1.12031 -2.387133,1.94251 -1.574121,1.78829 -4.06342,6.43812 -3.805917,7.10916 0.100583,0.26211 1.300541,0.98432 2.66658,1.60491 6.108524,2.77509 5.312937,4.04343 -4.652631,7.41736 -3.115014,1.05461 -8.831663,3.02394 -12.703663,4.37629 -8.443177,2.94889 -17.614927,5.66109 -18.719999,5.53573 -1.11832,-0.12687 -1.174304,-1.12912 -0.173401,-3.10431 0.769539,-1.51862 0.784031,-1.62645 0.218611,-1.62645 -0.333066,0 -1.403879,0.35305 -2.379585,0.78455 -2.596952,1.1485 -5.491214,1.82026 -7.372724,1.71123 l -1.6529,-0.0958 -0.09806,-1.35303 c -0.06118,-0.84411 0.140802,-1.89301 0.536995,-2.78867 0.598738,-1.35354 3.329467,-5.18193 5.71405,-8.0109 0.639583,-0.75877 1.342256,-2.16007 1.740317,-3.4706 0.764665,-2.51749 0.665799,-4.45389 -0.403182,-7.8968 -2.76762,-8.91377 -1.951565,-14.88216 2.706659,-19.79575 0.72777,-0.76767 3.447219,-3.11249 6.043219,-5.21072 3.206041,-2.5913 4.72,-4.018172 4.72,-4.448508 0,-0.348451 -0.991936,-2.613645 -2.204304,-5.033763 -2.345898,-4.682857 -3.875286,-8.653859 -4.505946,-11.699513 -0.551065,-2.661264 -1.247686,-2.917734 -7.20975,-2.654371 -4.030377,0.178035 -4.656637,0.131869 -6.239999,-0.46001 -0.968,-0.361846 -2.067741,-0.73446 -2.443869,-0.828028 -0.432652,-0.107632 -2.915401,0.771478 -6.758632,2.393148 -3.341121,1.409802 -6.34538,2.592061 -6.6761317,2.627248 C 6.6612441,83.651006 6.124071,83.518363 5.5891363,82.983416 4.9854272,82.379707 5.0816013,80.870443 5.9317718,77.606418 6.1975321,76.586095 6.336767,75.504882 6.2411827,75.203724 6.1404333,74.88629 5.0949962,74.28109 3.7536964,73.763724 0.98691623,72.696524 0,71.886297 0,70.68206 0,69.390918 1.1274239,68.285196 3.8109044,66.944515 6.8381407,65.432089 7.0160924,65.142966 6.0770243,63.262662 5.20269,61.511977 5.4516688,60.978896 7.2914009,60.662589 14.268284,59.463046 18.011881,57.998547 21.064919,55.274374 c 2.088556,-1.863583 3.674006,-2.577583 6.615079,-2.979068 1.878808,-0.256474 2.971247,-0.765178 5.026368,-2.340573 1.8032,-1.382275 1.885978,-1.984054 0.841127,-6.114736 C 33.061022,41.916791 32.840699,39.975633 32.79539,37.213505 32.71014,32.016568 32.675192,31.96769 26.486689,28.389819 23.549017,26.691408 18.526566,23.037971 15.656986,20.512061 13.39857,18.524121 13.164791,17.694714 13.877627,14.199204 15.314959,7.1510079 19.823337,2.2399999 24.856353,2.2399999 c 3.708022,0 5.758166,1.2166789 11.668083,6.9245445 2.224442,2.1483906 4.610077,4.1947296 5.301408,4.5474216 1.707072,0.870883 1.988419,1.283764 2.337869,3.430853 0.1656,1.017493 0.435545,1.984442 0.599881,2.148776 0.33848,0.338479 2.366493,-0.951978 5.276045,-3.35723 7.065875,-5.841176 11.442783,-5.361312 21.908024,2.401897 1.652499,1.225838 3.892454,2.691607 4.977677,3.257263 l 1.973132,1.028466 6.550762,-0.05459 c 7.222963,-0.06019 7.781999,-0.186321 9.412108,-2.123596 0.975872,-1.159757 2.540909,-4.165976 2.862243,-5.497965 0.11864,-0.491787 0.355014,-2.003786 0.525274,-3.36 0.761088,-6.0624782 4.419071,-9.6953664 11.221231,-11.14426802 7.48962,-1.59533118 16.4245,2.29480752 19.35924,8.42877362 1.22199,2.5541084 1.41517,6.2769114 0.50833,9.7961744 -0.48107,1.866904 -0.56668,2.733713 -0.33552,3.396824 0.1707,0.489665 1.58836,2.062294 3.15036,3.494731 4.66471,4.27777 6.72749,8.064714 6.72749,12.350595 0,1.904266 0.0523,2.023421 2.1177,4.82192 2.72521,3.692585 5.49643,9.470892 8.58915,17.909404 4.43134,12.090927 4.51533,12.253877 7.75953,15.054712 1.80134,1.555168 2.9539,3.484294 2.96659,4.965418 0.009,1.05647 0.91428,1.859286 5.37288,4.765036 3.97688,2.591811 4.51166,3.337561 3.31036,4.616288 -0.37513,0.399312 -0.58475,0.823341 -0.4658,0.942285 0.11894,0.11894 2.89226,0.218224 6.16292,0.220627 3.27067,0.0026 6.27224,0.09161 6.67017,0.19824 1.24594,0.333859 1.19424,1.430438 -0.22394,4.749788 -4.41628,10.336602 -12.25058,18.072882 -24.88777,24.576382 -2.71772,1.39863 -4.28574,2.39408 -4.4156,2.80322 -0.11075,0.34894 -0.0274,2.32204 0.18529,4.38467 0.73437,7.12283 0.01,12.85328 -2.60638,20.61789 -0.87003,2.58201 -2.21832,7.41709 -2.9962,10.74461 -2.00106,8.55985 -2.95811,11.01501 -5.25026,13.46877 -1.14643,1.22725 -1.52343,1.24927 -3.12398,0.18247 z m 2.54034,-1.72341 c 1.52979,-1.81804 2.56443,-4.68783 4.55963,-12.647 1.10298,-4.4 2.58249,-9.66248 3.28779,-11.6944 2.27384,-6.55078 2.82601,-11.75685 2.17065,-20.4656 -0.27442,-3.64655 -0.26989,-3.68652 0.49783,-4.39737 0.42612,-0.39456 2.06964,-1.3476 3.65227,-2.11789 3.51636,-1.71145 7.8776,-4.3865 11.35488,-6.96475 5.08283,-3.76869 9.24051,-8.61486 12.17789,-14.194472 2.03524,-3.865981 2.66224,-5.633894 2.12011,-5.97799 -0.22333,-0.141747 -3.05871,-0.25993 -6.30085,-0.262624 -5.03154,-0.0042 -5.9805,-0.08245 -6.48,-0.534496 -0.70875,-0.641411 -0.76089,-1.80623 -0.1052,-2.350403 0.264,-0.219101 0.48,-0.520567 0.48,-0.669923 0,-0.14936 -1.836,-1.475616 -4.08,-2.947239 -4.10284,-2.690659 -4.66398,-3.283651 -5.05588,-5.342838 -0.30262,-1.590089 -1.15039,-2.831135 -3.02952,-4.434895 -2.40637,-2.053741 -3.64984,-4.177021 -5.56801,-9.507616 -5.13342,-14.265791 -6.98828,-18.336274 -10.6663,-23.407131 -1.78497,-2.460912 -1.80919,-2.524269 -2.04852,-5.358902 -0.37102,-4.394266 -1.52973,-6.46922 -6.18096,-11.068436 -4.38073,-4.331747 -4.43802,-4.481973 -3.37259,-8.843627 0.8792,-3.59927 0.75933,-5.604364 -0.50321,-8.4176833 -2.1691,-4.8333991 -9.8149,-8.81179275 -15.65501,-8.1458801 -4.77576,0.5445523 -8.55386,2.4882043 -10.43001,5.36575 -1.19608,1.8344771 -1.515237,2.9161973 -2.147742,7.2792344 -0.58121,4.009213 -3.872832,8.909115 -6.409881,9.54174 -0.6448,0.160783 -4.124362,0.29321 -7.732362,0.294281 -7.950841,0.0024 -7.688214,0.08788 -14.350437,-4.673113 -2.579261,-1.843203 -5.697562,-3.833782 -6.929561,-4.423508 -5.38648,-2.578363 -7.454966,-2.033548 -15.297382,4.029151 -2.864755,2.214644 -3.930425,2.446453 -4.999392,1.087484 -0.364774,-0.463735 -0.663225,-1.246361 -0.663225,-1.739168 0,-1.484181 -0.528218,-2.416689 -1.816675,-3.207141 -0.672829,-0.41277 -3.188183,-2.634867 -5.589674,-4.937993 -6.228871,-5.9737355 -9.037466,-7.3068604 -12.777084,-6.0647586 -2.293584,0.7618061 -4.479773,2.9808271 -5.915756,6.0045986 -1.242475,2.6163 -2.151965,6.666198 -1.740232,7.749138 0.479217,1.260435 9.352567,7.943191 13.599421,10.242086 2.924195,1.582917 4.876355,3.457369 5.321194,5.109378 0.198153,0.735878 0.258307,2.174265 0.140803,3.366745 -0.158912,1.612723 -0.02224,2.928006 0.606425,5.835686 0.446368,2.064541 0.811578,4.530813 0.811578,5.480598 0,1.644615 -0.06479,1.779642 -1.36,2.834128 -2.677797,2.180122 -3.840101,2.757942 -6.186928,3.075731 -2.703217,0.366045 -4.340873,1.147142 -6.586304,3.141405 -2.279689,2.024684 -5.462453,3.434163 -10.026767,4.440319 -2.1119995,0.465568 -3.8876663,0.893988 -3.9459258,0.952039 -0.05826,0.05805 0.049741,0.396413 0.24,0.751917 0.1902595,0.355504 0.3459264,1.132896 0.3459264,1.727539 0,1.34854 -1.0758617,2.435609 -3.5199998,3.556665 -2.0134653,0.92352 -2.6726782,1.4124 -2.9688192,2.201715 -0.2353119,0.627187 0.4657261,1.073888 3.4199894,2.179222 2.9161406,1.091066 3.1922814,1.926096 2.1206735,6.412752 -0.6421031,2.688384 -0.6209645,3.17055 0.138999,3.17055 0.2381894,0 3.1223105,-1.152 6.4091565,-2.56 6.597022,-2.825993 7.644577,-3.021513 10.02211,-1.870569 1.285363,0.622233 1.978849,0.692409 7.115079,0.72 5.530237,0.0297 5.71376,0.05204 6.500375,0.790864 0.557293,0.52344 0.969117,1.462221 1.321939,3.013459 0.689571,3.031814 2.230525,6.940329 4.597545,11.661324 2.422189,4.831027 2.523318,5.824099 0.762951,7.492007 -0.66,0.62533 -2.944682,2.5171 -5.077069,4.20392 -4.58471,3.62672 -5.844444,5.02021 -7.423783,8.21202 -1.13383,2.29145 -1.179148,2.51282 -1.179148,5.76 0,2.91464 0.153338,3.9027 1.12,7.21697 0.941261,3.22719 1.11785,4.32515 1.106531,6.88 -0.0169,3.81451 -0.40806,4.71105 -4.118617,9.44 -2.740913,3.49318 -3.78246,5.22444 -4.215727,7.00741 l -0.225364,0.9274 1.659309,-0.22011 c 0.912621,-0.12107 2.841585,-0.66263 4.286589,-1.20349 5.503093,-2.05976 7.386204,-1.40058 5.660777,1.98154 -0.442343,0.86706 -0.522052,1.26725 -0.2524,1.26725 0.720822,0 10.96758,-3.16685 16.129839,-4.98507 2.798982,-0.98584 8.233916,-2.8557 12.077631,-4.15524 6.084969,-2.0573 9.457753,-3.48003 9.099408,-3.83838 -0.05813,-0.0581 -1.1817,-0.63307 -2.496832,-1.27765 -4.314224,-2.11452 -4.579955,-2.80031 -2.631146,-6.79036 1.314685,-2.69172 3.235936,-4.83139 5.629786,-6.26979 1.793929,-1.07793 2.457587,-1.02133 5.625836,0.47981 5.666211,2.68468 14.074425,4.97911 24.984372,6.81773 8.16097,1.37534 7.81449,1.28217 8.63166,2.32102 0.4941,0.62815 0.64834,1.3002 0.64834,2.82483 0,2.08291 0.53451,4.1042 2.83901,10.73605 1.25657,3.61615 1.95366,7.40214 1.96802,10.68866 0.007,1.53525 0.85976,4.03524 1.51511,4.44027 0.16983,0.10496 1.87683,-1.39301 3.79332,-3.32883 4.5092,-4.55465 4.44444,-4.5563 6.94166,0.17695 2.29319,4.34653 4.90733,7.81479 7.40701,9.82712 1.04727,0.84308 2.00647,1.53288 2.13155,1.53288 0.12509,0 0.58828,-0.42885 1.02932,-0.953 z"
       id="path3216" />
  </g>
</svg>
